<?xml version="1.0" encoding="utf-8"?>
<COLLADA xmlns="http://www.collada.org/2005/11/COLLADASchema" version="1.4.1" xmlns:xsi="http://www.w3.org/2001/XMLSchema-instance">
  <asset>
    <contributor>
      <author>Blender User</author>
      <authoring_tool>Blender 2.83.1 commit date:2020-06-25, commit time:09:47, hash:8289fc688b3e</authoring_tool>
    </contributor>
    <created>2020-07-05T17:04:31</created>
    <modified>2020-07-05T17:04:31</modified>
    <unit name="meter" meter="1"/>
    <up_axis>Z_UP</up_axis>
  </asset>
  <library_cameras>
    <camera id="Camera-camera" name="Camera">
      <optics>
        <technique_common>
          <perspective>
            <xfov sid="xfov">39.59775</xfov>
            <aspect_ratio>1.777778</aspect_ratio>
            <znear sid="znear">0.1</znear>
            <zfar sid="zfar">100</zfar>
          </perspective>
        </technique_common>
      </optics>
      <extra>
        <technique profile="blender">
          <shiftx sid="shiftx" type="float">0</shiftx>
          <shifty sid="shifty" type="float">0</shifty>
          <dof_distance sid="dof_distance" type="float">10</dof_distance>
        </technique>
      </extra>
    </camera>
  </library_cameras>
  <library_lights>
    <light id="Light-light" name="Light">
      <technique_common>
        <point>
          <color sid="color">1000 1000 1000</color>
          <constant_attenuation>1</constant_attenuation>
          <linear_attenuation>0</linear_attenuation>
          <quadratic_attenuation>0.00111109</quadratic_attenuation>
        </point>
      </technique_common>
      <extra>
        <technique profile="blender">
          <type sid="type" type="int">0</type>
          <flag sid="flag" type="int">0</flag>
          <mode sid="mode" type="int">1</mode>
          <gamma sid="blender_gamma" type="float">1</gamma>
          <red sid="red" type="float">1</red>
          <green sid="green" type="float">1</green>
          <blue sid="blue" type="float">1</blue>
          <shadow_r sid="blender_shadow_r" type="float">0</shadow_r>
          <shadow_g sid="blender_shadow_g" type="float">0</shadow_g>
          <shadow_b sid="blender_shadow_b" type="float">0</shadow_b>
          <energy sid="blender_energy" type="float">1000</energy>
          <dist sid="blender_dist" type="float">29.99998</dist>
          <spotsize sid="spotsize" type="float">75</spotsize>
          <spotblend sid="spotblend" type="float">0.15</spotblend>
          <att1 sid="att1" type="float">0</att1>
          <att2 sid="att2" type="float">1</att2>
          <falloff_type sid="falloff_type" type="int">2</falloff_type>
          <clipsta sid="clipsta" type="float">0.04999995</clipsta>
          <clipend sid="clipend" type="float">30.002</clipend>
          <bias sid="bias" type="float">1</bias>
          <soft sid="soft" type="float">3</soft>
          <bufsize sid="bufsize" type="int">2880</bufsize>
          <samp sid="samp" type="int">3</samp>
          <buffers sid="buffers" type="int">1</buffers>
          <area_shape sid="area_shape" type="int">1</area_shape>
          <area_size sid="area_size" type="float">0.1</area_size>
          <area_sizey sid="area_sizey" type="float">0.1</area_sizey>
          <area_sizez sid="area_sizez" type="float">1</area_sizez>
        </technique>
      </extra>
    </light>
  </library_lights>
  <library_effects>
    <effect id="Material-effect">
      <profile_COMMON>
        <technique sid="common">
          <lambert>
            <emission>
              <color sid="emission">0 0 0 1</color>
            </emission>
            <diffuse>
              <color sid="diffuse">0 0 0 1</color>
            </diffuse>
            <index_of_refraction>
              <float sid="ior">1.45</float>
            </index_of_refraction>
          </lambert>
        </technique>
      </profile_COMMON>
    </effect>
  </library_effects>
  <library_images/>
  <library_materials>
    <material id="Material-material" name="Material">
      <instance_effect url="#Material-effect"/>
    </material>
  </library_materials>
  <library_geometries>
    <geometry id="Chassi_Link-mesh" name="Chassi Link">
      <mesh>
        <source id="Chassi_Link-mesh-positions">
          <float_array id="Chassi_Link-mesh-positions-array" count="2151">0.01299995 0.39927 -0.02999997 -0.01299995 0.39927 -0.02999997 0.01249998 0.399404 -0.02999997 -0.01249998 0.399404 -0.02999997 0.01213395 0.39977 -0.02999997 -0.01199996 0.40027 -0.02999997 -0.01199996 0.41327 -0.02999997 0.01199996 0.41327 -0.02999997 -0.01213395 0.39977 -0.02999997 0.01199996 0.40027 -0.02999997 -0.01322871 0.40927 -0.01699995 -0.01732051 0.40427 -0.01699995 -0.2 0.40927 -0.01699995 -0.01999998 0.39427 -0.01699995 -0.2 0.37927 -0.01699995 -0.01732051 0.38427 -0.01699995 -0.01322871 0.37927 -0.01699995 -0.203 -0.04399996 0.105 -0.2 -0.04399996 0.105 -0.2 -0.13073 0.105 -0.23 0.10927 0.105 -0.2 0.10927 0.105 -0.2 0.04399996 0.105 -0.203 0.04399996 0.105 -0.23 -0.13073 0.105 0.2 0.04399996 0.105 0.2 0.10927 0.105 0.203 0.04399996 0.105 0.23 0.10927 0.105 0.203 -0.04399996 0.105 0.23 -0.13073 0.105 0.2 -0.04399996 0.105 0.2 -0.13073 0.105 0.2 -0.16073 0.105 0.2 -0.16073 -0.004999995 0.2 -0.13073 -0.004999995 -0.2 -0.16073 0.105 -0.2 -0.13073 -0.004999995 -0.2 -0.16073 -0.004999995 0.2 0.52927 -0.004999995 0.2 0.52927 0.105 0.2 0.55927 -0.004999995 0.2 0.55927 0.105 -0.2 0.55927 -0.004999995 -0.2 0.55927 0.105 -0.2 0.52927 -0.004999995 -0.2 0.52927 0.105 -0.23 0.13927 0.105 -0.2 0.13927 0.105 -0.23 0.13927 -0.004999995 -0.2 0.13927 -0.004999995 -0.23 0.52927 0.105 -0.23 0.52927 -0.004999995 0.2 0.13927 0.105 0.23 0.13927 0.105 0.2 0.13927 -0.004999995 0.23 0.13927 -0.004999995 -0.2 0.37927 -0.004999995 0.2 0.37927 0.01299995 -0.2 0.37927 0.01299995 0.01322871 0.37927 -0.01699995 0.2 0.37927 -0.01699995 0.2 0.37927 -0.004999995 -0.2 0.37927 0.105 -0.23 0.37927 0.105 -0.23 0.37927 -0.004999995 0.23 0.37927 -0.004999995 0.2 0.37927 0.105 0.23 0.37927 0.105 0.2 0.40927 -0.004999995 -0.2 0.40927 0.01299995 0.2 0.40927 0.01299995 -0.2 0.40927 -0.004999995 0.2 0.40927 0.105 0.23 0.40927 0.105 0.23 0.40927 -0.004999995 0.01322871 0.40927 -0.01699995 0.2 0.40927 -0.01699995 -0.23 0.40927 -0.004999995 -0.2 0.40927 0.105 -0.23 0.40927 0.105 0.23 0.52927 0.105 0.23 0.52927 -0.004999995 0.2 0.52927 0.135 0.23 0.55927 0.135 -0.2 0.52927 0.135 -0.23 0.55927 0.135 -0.2 -0.13073 0.135 -0.23 -0.16073 0.135 0.2 -0.13073 0.135 0.23 -0.16073 0.135 0.23 0.55927 -0.03499996 -0.23 0.55927 -0.03499996 0.23 -0.16073 -0.03499996 0.23 -0.13073 -0.03499996 0.23 0.10927 -0.03499996 -0.23 -0.16073 -0.03499996 -0.23 0.10927 -0.03499996 -0.23 -0.13073 -0.03499996 0.2 0.10927 -0.03499996 -0.2 0.10927 -0.03499996 -0.2 0.52927 -0.03499996 0.2 0.52927 -0.03499996 0.2 -0.04399996 -0.02499997 0.203 -0.04399996 -0.02499997 0.2 0.004999995 0.008660197 0.2 0 0.00999999 0.2 -0.004999995 0.008660197 0.2 -0.008660197 0.004999995 0.2 -0.00999999 0 0.2 -0.008660197 -0.004999995 0.2 -0.004999995 -0.008660197 0.2 0 -0.00999999 0.2 0.04399996 -0.02499997 0.2 0.004999995 -0.008660197 0.2 0.008660197 -0.004999995 0.2 0.00999999 0 0.2 0.008660197 0.004999995 0.203 0.04399996 -0.02499997 0.203 0.004999995 0.008660197 0.203 0.008660197 0.004999995 0.203 -0.004999995 -0.008660197 0.203 0 -0.00999999 0.203 0.004999995 -0.008660197 0.203 0.008660197 -0.004999995 0.203 0.00999999 0 0.203 -0.008660197 -0.004999995 0.203 -0.00999999 0 0.203 -0.008660197 0.004999995 0.203 -0.004999995 0.008660197 0.203 0 0.00999999 -0.203 -0.04399996 -0.02499997 -0.2 -0.04399996 -0.02499997 -0.203 0.008660197 0.004999995 -0.203 0.004999995 0.008660197 -0.203 0 0.00999999 -0.203 0.00999999 0 -0.203 0.04399996 -0.02499997 -0.203 0.008660197 -0.004999995 -0.203 -0.004999995 0.008660197 -0.203 -0.008660197 0.004999995 -0.203 -0.00999999 0 -0.203 -0.008660197 -0.004999995 -0.203 -0.004999995 -0.008660197 -0.203 0 -0.00999999 -0.203 0.004999995 -0.008660197 -0.2 0.04399996 -0.02499997 -0.2 -0.008660197 -0.004999995 -0.2 -0.00999999 0 -0.2 -0.008660197 0.004999995 -0.2 -0.004999995 0.008660197 -0.2 0 0.00999999 -0.2 0.008660197 -0.004999995 -0.2 0.004999995 -0.008660197 -0.2 0 -0.00999999 -0.2 -0.004999995 -0.008660197 -0.2 0.004999995 0.008660197 -0.2 0.008660197 0.004999995 -0.2 0.00999999 0 0.01732051 0.38427 -0.01699995 0.01999998 0.39427 -0.01699995 0.01732051 0.40427 -0.01699995 0 0.37427 -0.01699995 0.00999999 0.3769495 -0.01699995 -0.00999999 0.3769495 -0.01699995 0.00999999 0.4115905 -0.01699995 0 0.41427 -0.01699995 -0.00999999 0.4115905 -0.01699995 0.01399999 0.4085528 -0.02699995 0.00999999 0.4115905 -0.02699995 0.006244957 0.41327 -0.02699995 7.71829e-4 0.4142551 -0.02699995 0.01499998 0.4074987 -0.02699995 0.01732051 0.40427 -0.02699995 0.01499998 0.4074987 -0.02799999 0.01497995 0.4075214 -0.02780103 0.01492387 0.4075846 -0.02761727 0.01470708 0.4078236 -0.02729284 0.01438266 0.4081674 -0.02707606 0.01999998 0.39427 -0.02699995 0.01732051 0.38427 -0.02699995 0.00999999 0.3769495 -0.02699995 0 0.37427 -0.02699995 -0.00999999 0.3769495 -0.02699995 -0.01732051 0.38427 -0.02699995 -0.01449996 0.408045 -0.02713394 -0.01486599 0.4076491 -0.02749997 -0.01499998 0.4074987 -0.02699995 -0.01496326 0.4075403 -0.02773159 -0.01499998 0.4074987 -0.02799999 -0.01399999 0.4085528 -0.02699995 -0.01732051 0.40427 -0.02699995 -0.01999998 0.39427 -0.02699995 2.82842e-5 0.41427 -0.02699995 0 0.41427 -0.02699995 -2.82842e-5 0.41427 -0.02699995 -7.71829e-4 0.4142551 -0.02699995 -0.006244957 0.41327 -0.02699995 -0.00999999 0.4115905 -0.02699995 -0.01499998 0.40027 -0.02699995 0.01449996 0.399404 -0.02699995 0.01399999 0.39927 -0.02699995 0.01499998 0.40027 -0.02699995 0.01486599 0.39977 -0.02699995 -0.01399999 0.39927 -0.02699995 -0.01449996 0.399404 -0.02699995 -0.01486599 0.39977 -0.02699995 0.01399999 0.41327 -0.02699995 -0.01399999 0.41327 -0.02699995 0.01399999 0.41427 -0.07499998 0.01299995 0.41427 -0.07499998 0.01399999 0.41427 -0.02799999 0.01299995 0.41427 -0.02899998 0.006244957 0.41427 -0.02799999 -0.01299995 0.41427 -0.07499998 -0.01399999 0.41427 -0.07499998 -0.01299995 0.41427 -0.02899998 -0.01399999 0.41427 -0.02799999 -0.006244957 0.41427 -0.02799999 2.68701e-5 0.41427 -0.02700614 -2.68701e-5 0.41427 -0.02700614 7.33784e-4 0.41427 -0.02716767 -7.33784e-4 0.41427 -0.02716767 0.01499998 0.4008059 -0.07699996 0.01499998 0.40227 -0.07846409 0.01499998 0.40027 -0.07499998 0.01499998 0.40427 -0.07899999 0.01499998 0.40927 -0.07899999 0.01499998 0.41127 -0.07846409 0.01499998 0.4127341 -0.07699996 0.01499998 0.41327 -0.02799999 0.01499998 0.41327 -0.07499998 0.01299995 0.39927 -0.07499998 0.01399999 0.39927 -0.07499998 -0.01299995 0.39927 -0.07499998 -0.01399999 0.39927 -0.07499998 -0.01499998 0.40027 -0.07499998 -0.01499998 0.41327 -0.02799999 -0.01499998 0.41327 -0.07499998 -0.01499998 0.40227 -0.07846409 -0.01499998 0.4008059 -0.07699996 -0.01499998 0.40427 -0.07899999 -0.01499998 0.40927 -0.07899999 -0.01499998 0.41127 -0.07846409 -0.01499998 0.4127341 -0.07699996 0.01199996 0.40027 -0.07499998 0.01199996 0.41327 -0.07499998 0.01199996 0.40227 -0.07846409 0.01199996 0.4008059 -0.07699996 0.01199996 0.40427 -0.07899999 0.01199996 0.40927 -0.07899999 0.01199996 0.41127 -0.07846409 0.01199996 0.4127341 -0.07699996 0.01299995 0.40927 -0.07999998 0.01399999 0.40927 -0.07999998 0.01299995 0.40427 -0.07999998 0.01399999 0.40427 -0.07999998 -0.01199996 0.41327 -0.07499998 -0.01199996 0.40927 -0.07499998 -0.01199996 0.4127341 -0.07699996 -0.01199996 0.4089351 -0.07625001 -0.01199996 0.41127 -0.07846409 -0.01199996 0.40927 -0.07899999 -0.01199996 0.40802 -0.07716506 -0.01199996 0.40677 -0.07749998 -0.01199996 0.40427 -0.07899999 -0.01199996 0.40552 -0.07716506 -0.01199996 0.40227 -0.07846409 -0.01199996 0.4046049 -0.07625001 -0.01199996 0.4008059 -0.07699996 -0.01199996 0.40427 -0.07499998 -0.01199996 0.40027 -0.07499998 -0.01199996 0.4046049 -0.07374995 -0.01199996 0.40552 -0.0728349 -0.01199996 0.40677 -0.07249999 -0.01199996 0.40802 -0.0728349 -0.01199996 0.4089351 -0.07374995 -0.01299995 0.40427 -0.07999998 -0.01399999 0.40427 -0.07999998 -0.01299995 0.40927 -0.07999998 -0.01399999 0.40927 -0.07999998 -0.00999999 0.4089351 -0.07625001 -0.00999999 0.40802 -0.07716506 -0.00999999 0.40677 -0.07749998 -0.00999999 0.40552 -0.07716506 -0.00999999 0.4046049 -0.07625001 -0.00999999 0.40427 -0.07499998 -0.00999999 0.4046049 -0.07374995 -0.00999999 0.40552 -0.0728349 -0.00999999 0.40677 -0.07249999 -0.00999999 0.40802 -0.0728349 -0.00999999 0.4089351 -0.07374995 -0.00999999 0.40927 -0.07499998 0.004999995 0.4309182 -0.08147048 -0.004999995 0.4309182 -0.08147048 0.004999995 0.43177 -0.07499998 -0.004999995 0.43177 -0.07499998 0.004999995 0.4309182 -0.06852948 -0.004999995 0.4309182 -0.06852948 0.004999995 0.4284206 -0.0625 -0.004999995 0.4284206 -0.0625 0.004999995 0.4244477 -0.05732232 -0.004999995 0.4244477 -0.05732232 0.004999995 0.41927 -0.05334931 -0.004999995 0.41927 -0.05334931 0.004999995 0.4132405 -0.05085182 -0.004999995 0.4132405 -0.05085182 0.004999995 0.40677 -0.04999995 -0.004999995 0.40677 -0.04999995 0.004999995 0.4002995 -0.05085182 -0.004999995 0.4002995 -0.05085182 0.004999995 0.39427 -0.05334931 -0.004999995 0.39427 -0.05334931 0.004999995 0.3890923 -0.05732232 -0.004999995 0.3890923 -0.05732232 0.004999995 0.3851194 -0.0625 -0.004999995 0.3851194 -0.0625 0.004999995 0.3826218 -0.06852948 -0.004999995 0.3826218 -0.06852948 0.004999995 0.38177 -0.07499998 -0.004999995 0.38177 -0.07499998 0.004999995 0.3826218 -0.08147048 -0.004999995 0.3826218 -0.08147048 0.004999995 0.3851194 -0.08749997 -0.004999995 0.3851194 -0.08749997 0.004999995 0.3890923 -0.09267765 -0.004999995 0.3890923 -0.09267765 0.004999995 0.39427 -0.0966506 -0.004999995 0.39427 -0.0966506 0.004999995 0.4002995 -0.09914815 -0.004999995 0.4002995 -0.09914815 0.004999995 0.40677 -0.1 -0.004999995 0.40677 -0.1 0.004999995 0.4132405 -0.09914815 -0.004999995 0.4132405 -0.09914815 0.004999995 0.41927 -0.0966506 -0.004999995 0.41927 -0.0966506 0.004999995 0.4244477 -0.09267765 -0.004999995 0.4244477 -0.09267765 0.004999995 0.4284206 -0.08749997 -0.004999995 0.4284206 -0.08749997 0.00999999 0.3894495 -0.06499999 0.00999999 0.3874515 -0.06982362 0.00999999 0.40677 -0.07499998 0.00999999 0.38677 -0.07499998 0.00999999 0.3874515 -0.08017635 0.00999999 0.4015936 -0.05568146 0.00999999 0.39677 -0.05767947 0.00999999 0.3926278 -0.06085783 0.00999999 0.41677 -0.05767947 0.00999999 0.4119464 -0.05568146 0.00999999 0.40677 -0.05499994 0.00999999 0.4260885 -0.06982362 0.00999999 0.4240905 -0.06499999 0.00999999 0.4209122 -0.06085783 0.00999999 0.4240905 -0.08499997 0.00999999 0.4260885 -0.08017635 0.00999999 0.42677 -0.07499998 0.00999999 0.4119464 -0.0943185 0.00999999 0.41677 -0.0923205 0.00999999 0.4209122 -0.08914214 0.00999999 0.39677 -0.0923205 0.00999999 0.4015936 -0.0943185 0.00999999 0.40677 -0.09499996 0.00999999 0.3894495 -0.08499997 0.00999999 0.3926278 -0.08914214 -0.00999999 0.4260885 -0.08017635 -0.00999999 0.4209122 -0.06085783 -0.00999999 0.4015936 -0.0943185 -0.00999999 0.4240905 -0.06499999 -0.00999999 0.4260885 -0.06982362 -0.00999999 0.42677 -0.07499998 -0.00999999 0.4119464 -0.05568146 -0.00999999 0.41677 -0.05767947 -0.00999999 0.3874515 -0.06982362 -0.00999999 0.4119464 -0.0943185 -0.00999999 0.40677 -0.09499996 -0.00999999 0.3894495 -0.06499999 -0.00999999 0.3926278 -0.06085783 -0.00999999 0.3874515 -0.08017635 -0.00999999 0.38677 -0.07499998 -0.00999999 0.4240905 -0.08499997 -0.00999999 0.4209122 -0.08914214 -0.00999999 0.41677 -0.0923205 -0.00999999 0.39677 -0.05767947 -0.00999999 0.4015936 -0.05568146 -0.00999999 0.40677 -0.05499994 -0.00999999 0.39677 -0.0923205 -0.00999999 0.3926278 -0.08914214 -0.00999999 0.3894495 -0.08499997 -0.007499992 0.3832689 -0.08129709 -0.007499992 0.3856995 -0.08716505 -0.007499992 0.389566 -0.09220397 -0.007499992 0.3946049 -0.09607046 -0.007499992 0.4004729 -0.09850108 -0.007499992 0.40677 -0.09933012 -0.007499992 0.4130671 -0.09850108 -0.007499992 0.4189351 -0.09607046 -0.007499992 0.423974 -0.09220397 -0.007499992 0.4278405 -0.08716505 -0.007499992 0.4302711 -0.08129709 -0.007499992 0.4311001 -0.07499998 -0.007499992 0.4302711 -0.06870287 -0.007499992 0.4278405 -0.06283491 -0.007499992 0.423974 -0.057796 -0.007499992 0.4189351 -0.05392944 -0.007499992 0.4130671 -0.05149888 -0.007499992 0.40677 -0.05066984 -0.007499992 0.4004729 -0.05149888 -0.007499992 0.3946049 -0.05392944 -0.007499992 0.389566 -0.057796 -0.007499992 0.3856995 -0.06283491 -0.007499992 0.3832689 -0.06870287 -0.007499992 0.3824399 -0.07499998 -0.009330093 0.3850367 -0.08082342 -0.009330093 0.3872844 -0.08625 -0.009330093 0.3908601 -0.09090989 -0.009330093 0.39552 -0.09448558 -0.009330093 0.4009466 -0.09673333 -0.009330093 0.40677 -0.09749996 -0.009330093 0.4125934 -0.09673333 -0.009330093 0.41802 -0.09448558 -0.009330093 0.4226799 -0.09090989 -0.009330093 0.4262556 -0.08625 -0.009330093 0.4285033 -0.08082342 -0.009330093 0.42927 -0.07499998 -0.009330093 0.4285033 -0.06917655 -0.009330093 0.4262556 -0.06374996 -0.009330093 0.4226799 -0.05909007 -0.009330093 0.41802 -0.05551439 -0.009330093 0.4125934 -0.05326664 -0.009330093 0.40677 -0.05249994 -0.009330093 0.4009466 -0.05326664 -0.009330093 0.39552 -0.05551439 -0.009330093 0.3908601 -0.05909007 -0.009330093 0.3872844 -0.06374996 -0.009330093 0.3850367 -0.06917655 -0.009330093 0.38427 -0.07499998 0.01399999 0.40177 -0.07933008 0.01299995 0.40177 -0.07933008 0.01399999 0.3999398 -0.07749998 0.01299995 0.3999398 -0.07749998 0.01299995 0.41177 -0.07933008 0.01399999 0.41177 -0.07933008 0.01299995 0.4136001 -0.07749998 0.01399999 0.4136001 -0.07749998 -0.01299995 0.40177 -0.07933008 -0.01399999 0.40177 -0.07933008 -0.01299995 0.3999398 -0.07749998 -0.01399999 0.3999398 -0.07749998 -0.01399999 0.41177 -0.07933008 -0.01299995 0.41177 -0.07933008 -0.01399999 0.4136001 -0.07749998 -0.01299995 0.4136001 -0.07749998 0.01261729 0.3993461 -0.07499998 0.01249998 0.399404 -0.07499998 0.01229286 0.3995629 -0.07499998 0.01213395 0.39977 -0.07499998 0.01207607 0.3998873 -0.07499998 0.01261729 0.4000058 -0.07746189 0.01261729 0.40427 -0.07992386 0.01261729 0.401808 -0.07926416 0.01249998 0.40427 -0.07986599 0.01229286 0.4019165 -0.07907646 0.01229286 0.4001935 -0.07735353 0.01207607 0.4020786 -0.07879549 0.01213395 0.40427 -0.07949995 0.01229286 0.40427 -0.07970708 0.01207607 0.40427 -0.07938265 0.01207607 0.4004745 -0.07719135 0.01261729 0.40927 -0.07992386 0.01249998 0.40927 -0.07986599 0.01229286 0.40927 -0.07970708 0.01213395 0.40927 -0.07949995 0.01207607 0.40927 -0.07938265 0.01261729 0.4117319 -0.07926416 0.01261729 0.4141939 -0.07499998 0.01261729 0.4135342 -0.07746189 0.01249998 0.414136 -0.07499998 0.01229286 0.4133465 -0.07735353 0.01229286 0.4116235 -0.07907646 0.01207607 0.4130655 -0.07719135 0.01213395 0.41377 -0.07499998 0.01229286 0.4139771 -0.07499998 0.01207607 0.4136527 -0.07499998 0.01207607 0.4114614 -0.07879549 0.01249998 0.414136 -0.02949994 0.01213395 0.41377 -0.02986598 0.01203405 0.4135288 -0.02996587 -0.01203405 0.4135288 -0.02996587 -0.01213395 0.41377 -0.02986598 -0.01249998 0.414136 -0.02949994 -0.01213395 0.41377 -0.07499998 -0.01207607 0.4136527 -0.07499998 -0.01229286 0.4139771 -0.07499998 -0.01249998 0.414136 -0.07499998 -0.01261729 0.4141939 -0.07499998 -0.01261729 0.4135342 -0.07746189 -0.01261729 0.40927 -0.07992386 -0.01261729 0.4117319 -0.07926416 -0.01249998 0.40927 -0.07986599 -0.01229286 0.4116235 -0.07907646 -0.01229286 0.4133465 -0.07735353 -0.01207607 0.4114614 -0.07879549 -0.01213395 0.40927 -0.07949995 -0.01229286 0.40927 -0.07970708 -0.01207607 0.40927 -0.07938265 -0.01207607 0.4130655 -0.07719135 -0.01261729 0.40427 -0.07992386 -0.01249998 0.40427 -0.07986599 -0.01229286 0.40427 -0.07970708 -0.01213395 0.40427 -0.07949995 -0.01207607 0.40427 -0.07938265 -0.01261729 0.401808 -0.07926416 -0.01261729 0.3993461 -0.07499998 -0.01261729 0.4000058 -0.07746189 -0.01249998 0.399404 -0.07499998 -0.01229286 0.4001935 -0.07735353 -0.01229286 0.4019165 -0.07907646 -0.01207607 0.4004745 -0.07719135 -0.01213395 0.39977 -0.07499998 -0.01229286 0.3995629 -0.07499998 -0.01207607 0.3998873 -0.07499998 -0.01207607 0.4020786 -0.07879549 2.73415e-5 0.41427 -0.02700406 2.78129e-5 0.41427 -0.02700203 7.46522e-4 0.4142683 -0.02711153 7.59232e-4 0.4142631 -0.02705371 0.006244957 0.41377 -0.02713394 0.006244957 0.414136 -0.02749997 0.01486599 0.41327 -0.02749997 0.01470708 0.41327 -0.02729284 0.01449996 0.41327 -0.02713394 0.01399999 0.41377 -0.02713394 0.01399999 0.414136 -0.02749997 0.01424998 0.413703 -0.02713394 0.01475 0.413703 -0.02749997 0.01486599 0.41377 -0.02799999 0.01449996 0.414136 -0.02799999 0.01443296 0.41402 -0.02749997 0.01443296 0.41352 -0.02713394 0.01438266 0.4141939 -0.07499998 0.01449996 0.414136 -0.07499998 0.01470708 0.4139771 -0.07499998 0.01486599 0.41377 -0.07499998 0.01492387 0.4136527 -0.07499998 0.01438266 0.4135342 -0.07746189 0.01438266 0.40927 -0.07992386 0.01438266 0.4117319 -0.07926416 0.01449996 0.40927 -0.07986599 0.01470708 0.4116235 -0.07907646 0.01470708 0.4133465 -0.07735353 0.01492387 0.4114614 -0.07879549 0.01486599 0.40927 -0.07949995 0.01470708 0.40927 -0.07970708 0.01492387 0.40927 -0.07938265 0.01492387 0.4130655 -0.07719135 0.01438266 0.40427 -0.07992386 0.01449996 0.40427 -0.07986599 0.01470708 0.40427 -0.07970708 0.01486599 0.40427 -0.07949995 0.01492387 0.40427 -0.07938265 0.01438266 0.401808 -0.07926416 0.01438266 0.3993461 -0.07499998 0.01438266 0.4000058 -0.07746189 0.01449996 0.399404 -0.07499998 0.01470708 0.4001935 -0.07735353 0.01470708 0.4019165 -0.07907646 0.01492387 0.4004745 -0.07719135 0.01486599 0.39977 -0.07499998 0.01470708 0.3995629 -0.07499998 0.01492387 0.3998873 -0.07499998 0.01492387 0.4020786 -0.07879549 -2.78129e-5 0.41427 -0.02700203 -2.73415e-5 0.41427 -0.02700406 -7.59232e-4 0.4142631 -0.02705371 -7.46522e-4 0.4142683 -0.02711153 -0.006244957 0.41377 -0.02713394 -0.006244957 0.414136 -0.02749997 -0.01399999 0.41377 -0.02713394 -0.01399999 0.414136 -0.02749997 -0.01449996 0.41327 -0.02713394 -0.01486599 0.41327 -0.02749997 -0.01449996 0.414136 -0.02799999 -0.01486599 0.41377 -0.02799999 -0.01443296 0.41402 -0.02749997 -0.01475 0.413703 -0.02749997 -0.01424998 0.413703 -0.02713394 -0.01443296 0.41352 -0.02713394 -0.01492387 0.4136527 -0.07499998 -0.01486599 0.41377 -0.07499998 -0.01470708 0.4139771 -0.07499998 -0.01449996 0.414136 -0.07499998 -0.01438266 0.4141939 -0.07499998 -0.01438266 0.4117319 -0.07926416 -0.01438266 0.4135342 -0.07746189 -0.01470708 0.4133465 -0.07735353 -0.01438266 0.40927 -0.07992386 -0.01449996 0.40927 -0.07986599 -0.01470708 0.4116235 -0.07907646 -0.01492387 0.4130655 -0.07719135 -0.01492387 0.4114614 -0.07879549 -0.01470708 0.40927 -0.07970708 -0.01486599 0.40927 -0.07949995 -0.01492387 0.40927 -0.07938265 -0.01438266 0.40427 -0.07992386 -0.01449996 0.40427 -0.07986599 -0.01470708 0.40427 -0.07970708 -0.01486599 0.40427 -0.07949995 -0.01492387 0.40427 -0.07938265 -0.01438266 0.4000058 -0.07746189 -0.01438266 0.401808 -0.07926416 -0.01470708 0.4019165 -0.07907646 -0.01438266 0.3993461 -0.07499998 -0.01449996 0.399404 -0.07499998 -0.01470708 0.4001935 -0.07735353 -0.01492387 0.4020786 -0.07879549 -0.01492387 0.4004745 -0.07719135 -0.01470708 0.3995629 -0.07499998 -0.01486599 0.39977 -0.07499998 -0.01492387 0.3998873 -0.07499998 0.009330093 0.3850367 -0.08082342 0.009330093 0.3872844 -0.08625 0.009330093 0.3908601 -0.09090989 0.009330093 0.39552 -0.09448558 0.009330093 0.4009466 -0.09673333 0.009330093 0.40677 -0.09749996 0.009330093 0.4125934 -0.09673333 0.009330093 0.41802 -0.09448558 0.009330093 0.4226799 -0.09090989 0.009330093 0.4262556 -0.08625 0.009330093 0.4285033 -0.08082342 0.009330093 0.42927 -0.07499998 0.009330093 0.4285033 -0.06917655 0.009330093 0.4262556 -0.06374996 0.009330093 0.4226799 -0.05909007 0.009330093 0.41802 -0.05551439 0.009330093 0.4125934 -0.05326664 0.009330093 0.40677 -0.05249994 0.009330093 0.4009466 -0.05326664 0.009330093 0.39552 -0.05551439 0.009330093 0.3908601 -0.05909007 0.009330093 0.3872844 -0.06374996 0.009330093 0.3850367 -0.06917655 0.009330093 0.38427 -0.07499998 0.007499992 0.3832689 -0.08129709 0.007499992 0.3856995 -0.08716505 0.007499992 0.389566 -0.09220397 0.007499992 0.3946049 -0.09607046 0.007499992 0.4004729 -0.09850108 0.007499992 0.40677 -0.09933012 0.007499992 0.4130671 -0.09850108 0.007499992 0.4189351 -0.09607046 0.007499992 0.423974 -0.09220397 0.007499992 0.4278405 -0.08716505 0.007499992 0.4302711 -0.08129709 0.007499992 0.4311001 -0.07499998 0.007499992 0.4302711 -0.06870287 0.007499992 0.4278405 -0.06283491 0.007499992 0.423974 -0.057796 0.007499992 0.4189351 -0.05392944 0.007499992 0.4130671 -0.05149888 0.007499992 0.40677 -0.05066984 0.007499992 0.4004729 -0.05149888 0.007499992 0.3946049 -0.05392944 0.007499992 0.389566 -0.057796 0.007499992 0.3856995 -0.06283491 0.007499992 0.3832689 -0.06870287 0.007499992 0.3824399 -0.07499998 0.2179999 0.004999995 0.008660197 0.2179999 0.008660197 0.004999995 0.2179999 0.00999999 0 0.2179999 0.008660197 -0.004999995 0.2179999 0.004999995 -0.008660197 0.2179999 0 -0.00999999 0.2179999 -0.004999995 -0.008660197 0.2179999 -0.008660197 -0.004999995 0.2179999 -0.00999999 0 0.2179999 -0.008660197 0.004999995 0.2179999 -0.004999995 0.008660197 0.2179999 0 0.00999999 0.2179999 0.002499997 -0.004330098 0.2179999 0.004330098 -0.002499997 0.2179999 0.004999995 0 0.2179999 0.004330098 0.002499997 0.2179999 0.002499997 0.004330098 0.2179999 0 0.004999995 0.2179999 -0.002499938 0.004330098 0.2179999 -0.004330098 0.002499997 0.2179999 -0.004999995 0 0.2179999 -0.004330098 -0.002499997 0.2179999 -0.002499938 -0.004330098 0.2179999 0 -0.004999995 -0.2179999 0.004999995 -0.008660197 -0.2179999 0.008660197 -0.004999995 -0.2179999 0.00999999 0 -0.2179999 0.008660197 0.004999995 -0.2179999 0.004999995 0.008660197 -0.2179999 0 0.00999999 -0.2179999 -0.004999995 0.008660197 -0.2179999 -0.008660197 0.004999995 -0.2179999 -0.00999999 0 -0.2179999 -0.008660197 -0.004999995 -0.2179999 -0.004999995 -0.008660197 -0.2179999 0 -0.00999999 -0.2179999 0.002499997 0.004330098 -0.2179999 0.004330098 0.002499997 -0.2179999 0.004999995 0 -0.2179999 0.004330098 -0.002499997 -0.2179999 0.002499997 -0.004330098 -0.2179999 0 -0.004999995 -0.2179999 -0.002499938 -0.004330098 -0.2179999 -0.004330098 -0.002499997 -0.2179999 -0.004999995 0 -0.2179999 -0.004330098 0.002499997 -0.2179999 -0.002499938 0.004330098 -0.2179999 0 0.004999995</float_array>
          <technique_common>
            <accessor source="#Chassi_Link-mesh-positions-array" count="717" stride="3">
              <param name="X" type="float"/>
              <param name="Y" type="float"/>
              <param name="Z" type="float"/>
            </accessor>
          </technique_common>
        </source>
        <source id="Chassi_Link-mesh-normals">
          <float_array id="Chassi_Link-mesh-normals-array" count="3069">0 0 -1 0 0 -1 0 0 -1 7.83941e-7 0 -1 -2.87445e-7 0 -1 -1.56788e-6 0 -1 -1 0 0 1 0 0 0 1 0 0 -1 0 0 -1 4.69342e-5 0 1 -4.69342e-5 0 0 1 -6.89869e-7 0 1 7.52584e-7 0 1 1 4.43487e-7 0 0 -1 1.07979e-6 0 -1 -1.07979e-6 -1 -2.82219e-7 0 -1 6.97688e-6 0 -1 1.12888e-6 0 -1 -6.97685e-6 0 -1 1.41903e-6 0 -1 -1.14417e-6 0 -1 8.69102e-7 0 -1 -8.69103e-7 0 -1 1.14417e-6 0 -1 -1.68565e-6 0 1 1.64502e-6 0 1 -3.47641e-6 0 1 3.47641e-6 0 1 -4.59783e-6 0 1 8.10874e-7 0 1 -5.11691e-6 0 1 3.4325e-6 0 1 4.59783e-6 0 1 -3.4325e-6 0 1 -8.42826e-7 0 1 -1.64503e-6 0 1 -1.95867e-6 0 1 1.52619e-6 0 -1 1.52619e-6 0 -1 8.42826e-7 0 -1 4.57667e-6 0 -1 -1.64503e-6 0 -1 -8.10874e-7 0 -1 5.11691e-6 0 -1 -3.4325e-6 0 -1 2.29891e-6 0 -1 -2.60731e-6 0 -1 2.60731e-6 0 -1 -2.87364e-6 0 1 -1.14417e-6 0 1 1.68565e-6 0 1 -5.31638e-6 0 1 -8.69103e-7 0 1 8.69102e-7 0 1 6.97688e-6 0 1 -1.41903e-6 0 1 1.14417e-6 0 0 0 -1 0 0 -1 0 0 1 0.604788 0.7963865 0 0.4082874 0.9128535 0 0.2582737 0.9638889 0.06490755 0.1771303 0.9841118 0.01220762 0.5831357 0.8113685 -0.04042387 0.8113703 0.5831328 0.04042983 0.7497915 0.6616742 0 0.7477449 0.6639862 1.98657e-4 0.741944 0.6704598 0.001661837 0.7097506 0.701167 0.06796288 0.7566156 0.6445255 0.1100898 0.7149925 0.6951129 0.07485932 0.7738931 0.6333163 0 0.9659258 0.2588194 0 0.9659259 0.258819 0 0.9659259 -0.2588191 0 0.9659259 -0.2588193 0 0.7738931 -0.6333163 0 0.7056539 -0.7056522 -0.06408947 0.5836125 -0.8120324 0 0.2588195 -0.9659258 0 -0.2588195 -0.9659258 0 -0.5836125 -0.8120324 0 -0.7056539 -0.7056522 -0.06408947 -0.7369163 0.6759595 0.00576502 -0.7460525 0.6658871 3.0406e-4 -0.7492973 0.6622337 0 -0.7207198 0.6886994 0.0790959 -0.724938 0.6838377 0.08265048 -0.5831357 0.8113685 -0.04042387 -0.8113704 0.5831326 0.04042983 -0.7738931 0.6333163 0 -0.9659259 0.2588193 0 -0.9659259 0.2588191 0 -0.9659259 -0.258819 0 -0.9659258 -0.2588194 0 -0.7738931 -0.6333163 0 0.01999658 0.9998 4.62272e-5 0.001053631 0.9999995 0 -0.2588195 0.9659258 0 -0.001022994 0.9656329 0.2599079 -0.01940882 0.9704229 0.2406303 -0.1762854 0.9794177 0.09830802 -0.4082874 0.9128535 0 -0.604788 0.7963865 0 8.05226e-7 0 -1 -7.93047e-7 0 -1 -2.17006e-7 0 -1 7.32644e-6 0 -1 -3.85612e-7 0 1 0 1 6.00465e-5 0 1 -3.81239e-4 0 1 3.72827e-5 0 1 -7.16401e-5 1 0 0 1 0 0 0 -1 -2.388e-5 -1 -1.69715e-6 0 1 -1.28109e-6 0 1 1.28873e-6 0 1 -3.35313e-7 0 1 3.35313e-7 0 1 2.73112e-7 0 1 -2.64579e-6 0 1 7.23623e-7 0 1 -7.23623e-7 0 1 3.69572e-7 0 0 0.9659284 -0.2588096 0 0.707117 -0.7070966 0 0.707072 -0.7071416 0 0.2588369 -0.9659211 0 0.2588257 -0.9659241 0 -0.2588145 -0.9659271 0 -0.2588369 -0.9659211 0 -0.707117 -0.7070966 0 -0.7070945 -0.7071191 0 -0.9659285 -0.2588094 0 -0.9659171 -0.2588515 0 -0.9659165 0.2588544 0 -0.9659277 0.2588122 0 -0.7071005 0.7071132 0 -0.7071226 0.707091 0 -0.2588263 0.965924 0 -0.2588038 0.96593 0 0.2588151 0.965927 0 0.2588263 0.965924 0 0.707078 0.7071356 0 0.7071226 0.707091 0 0.9659277 0.2588124 0 0.9659277 0.2588122 0 0.9659285 -0.2588094 0 0.9914444 -0.1305299 0 0.9914462 -0.1305159 0 0.9914462 0.1305162 0 0.9914444 0.1305302 0 0.9238735 0.3826983 0 0.9238836 0.382674 0 0.7933567 0.6087571 0 0.7933498 0.6087661 0 0.6087667 0.7933493 0 0.6087598 0.7933546 0 0.3826808 0.9238807 0 0.3826858 0.9238786 0 0.1305248 0.9914451 0 0.1305266 0.9914448 0 -0.1305266 0.9914448 0 -0.3826808 0.9238807 0 -0.3826858 0.9238786 0 -0.6087598 0.7933546 0 -0.7933532 0.6087616 0 -0.7933567 0.6087571 0 -0.9238759 0.3826922 0 -0.923881 0.38268 0 -0.9914462 0.1305162 0 -0.9914444 0.1305302 0 -0.9914444 -0.1305299 0 -0.9914462 -0.1305159 0 -0.923881 -0.38268 0 -0.9238759 -0.3826922 0 -0.7933565 -0.6087574 0 -0.7933531 -0.6087619 0 -0.6087598 -0.7933546 0 -0.3826858 -0.9238786 0 -0.3826808 -0.9238807 0 -0.1305266 -0.9914448 0 0.1305266 -0.9914448 0 0.1305248 -0.9914451 0 0.3826858 -0.9238786 0 0.3826808 -0.9238807 0 0.6087598 -0.7933546 0 0.6087667 -0.7933493 0 0.7933496 -0.6087664 0 0.7933565 -0.6087574 0 0.9238836 -0.382674 0 0.9238735 -0.3826983 1 0 0 1 -2.81121e-7 0 1 0 0 1 0 0 1 2.81121e-7 0 1 0 0 1 0 0 1 0 0 1 0 0 1 0 0 1 0 0 -1 1.59861e-7 0 -1 -4.79584e-7 0 -1 -9.19209e-7 0 -1 1.60641e-7 0 -1 0 0 -1 3.19723e-7 0 -1 -1.2789e-6 0 -1 0 0 -1 0 0 -1 -1.59862e-7 0 -1 1.2789e-6 0 -1 0 0 -1 0 0 -1 -1.60641e-7 0 -1 0 0 -1 6.39458e-7 0 -1 -3.19723e-7 0 -1 1.60641e-7 0 -1 0 0 -1 0 0 -1 0 0 -1 0 0 -1 1.2789e-6 0 -1 0 0 -1 0 0 -1 0 0 -1 0 0 -1 0 0 -0.2567475 -0.9582107 -0.1261476 -0.2567476 -0.8929083 -0.3698585 -0.2567428 -0.8929123 -0.3698524 -0.256743 -0.7667553 -0.5883616 -0.2567564 -0.7667601 -0.5883496 -0.2567514 -0.5883551 -0.7667575 -0.2567573 -0.5883516 -0.7667582 -0.2567536 -0.3698534 -0.8929088 -0.2567542 -0.369857 -0.8929072 -0.2567529 -0.1261516 -0.9582087 -0.2567509 -0.126151 -0.9582092 -0.2567529 0.1261517 -0.9582087 -0.2567549 0.1261509 -0.9582083 -0.256747 0.369854 -0.8929104 -0.2567539 0.3698521 -0.8929092 -0.2567575 0.588361 -0.7667509 -0.2567538 0.5883522 -0.7667589 -0.2567561 0.7667526 -0.5883592 -0.2567529 0.7667607 -0.5883502 -0.2567532 0.8929096 -0.3698519 -0.2567578 0.8929062 -0.3698568 -0.2567595 0.9582064 -0.1261553 -0.2567493 0.9582111 -0.1261408 -0.2567493 0.9582108 0.126142 -0.2567583 0.9582068 0.1261543 -0.2567582 0.8929083 0.3698514 -0.2567526 0.8929075 0.3698573 -0.2567517 0.7667605 0.5883511 -0.2567528 0.7667544 0.5883585 -0.2567548 0.5883546 0.7667568 -0.2567587 0.5883581 0.7667528 -0.2567534 0.3698554 0.8929081 -0.2567484 0.3698526 0.8929106 -0.2567463 0.1261497 0.9582107 -0.2567509 0.126151 0.9582092 -0.2567463 -0.1261497 0.9582107 -0.2567479 -0.1261512 0.9582101 -0.2567501 -0.3698605 0.8929069 -0.2567553 -0.369852 0.8929089 -0.2567548 -0.5883546 0.7667568 -0.2567551 -0.588352 0.7667587 -0.2567567 -0.7667595 0.5883503 -0.2567425 -0.7667565 0.5883602 -0.2567433 -0.892912 0.3698529 -0.2567478 -0.8929087 0.3698579 -0.2567479 -0.9582104 0.1261489 -0.2567488 -0.9582102 0.1261479 -0.2567498 -0.9582098 -0.1261486 -0.7040653 -0.7040609 -0.0926848 -0.7040633 -0.6560766 -0.2717691 -0.7040656 -0.6560805 -0.2717539 -0.7040655 -0.5633878 -0.4323033 -0.7040615 -0.5633882 -0.432309 -0.7040642 -0.4323067 -0.5633867 -0.7040633 -0.4323056 -0.5633886 -0.7040632 -0.2717565 -0.6560818 -0.7040627 -0.2717586 -0.6560815 -0.7040587 -0.09269183 -0.7040664 -0.704066 -0.09269315 -0.704059 -0.7040627 0.09269046 -0.7040627 -0.7040576 0.0926932 -0.7040674 -0.7040629 0.2717594 -0.656081 -0.7040631 0.2717587 -0.6560811 -0.7040592 0.4323059 -0.5633935 -0.7040627 0.4323025 -0.5633917 -0.7040653 0.5633882 -0.4323031 -0.7040611 0.5633953 -0.4323006 -0.704059 0.6560833 -0.2717642 -0.704061 0.6560846 -0.2717555 -0.7040607 0.704065 -0.09268754 -0.7040621 0.7040612 -0.0927062 -0.7040631 0.7040617 0.09269505 -0.7040598 0.7040643 0.0926997 -0.7040614 0.6560838 0.2717567 -0.7040579 0.656085 0.2717629 -0.7040604 0.563392 0.4323061 -0.7040657 0.5633921 0.4322974 -0.7040662 0.4323055 0.5633852 -0.7040567 0.4323027 0.563399 -0.704061 0.2717602 0.6560828 -0.7040653 0.2717592 0.6560785 -0.7040607 0.09269058 0.7040646 -0.7040644 0.09269088 0.7040609 -0.7040664 -0.09269195 0.7040587 -0.704062 -0.09269112 0.7040633 -0.7040649 -0.2717587 0.6560792 -0.7040587 -0.2717592 0.6560857 -0.7040623 -0.4323078 0.5633882 -0.7040656 -0.4323043 0.5633869 -0.704062 -0.563387 0.4323099 -0.7040644 -0.5633896 0.4323026 -0.7040638 -0.6560789 0.2717623 -0.704065 -0.6560784 0.2717601 -0.7040665 -0.7040593 0.09268707 -0.7040644 -0.7040617 0.09268516 -0.7040637 -0.7040622 -0.09268718 -0.965366 -0.2586677 -0.03405392 -0.9653658 -0.2410402 -0.09984332 -0.9653659 -0.2410402 -0.09984219 -0.9653667 -0.2069851 -0.1588218 -0.9653654 -0.2069875 -0.1588273 -0.9653654 -0.158827 -0.2069871 -0.9653654 -0.1588261 -0.2069879 -0.9653655 -0.09984219 -0.2410417 -0.9653664 -0.09984266 -0.2410381 -0.9653651 -0.03405475 -0.2586708 -0.9653664 -0.03405439 -0.2586659 -0.9653657 0.03405445 -0.2586686 -0.9653654 0.03405445 -0.25867 -0.9653655 0.09984219 -0.2410417 -0.9653662 0.0998429 -0.2410387 -0.9653646 0.1588268 -0.2069913 -0.9653661 0.1588263 -0.2069844 -0.9653653 0.2069871 -0.158828 -0.9653659 0.2069857 -0.1588258 -0.9653657 0.2410402 -0.09984308 -0.9653663 0.2410404 -0.09983855 -0.9653659 0.2586671 -0.0340597 -0.9653657 0.2586691 -0.03405028 -0.9653658 0.2586684 0.03405553 -0.9653658 0.2586683 0.03405404 -0.965366 0.2410408 0.09983968 -0.965366 0.2410397 0.09984201 -0.9653655 0.2069863 0.158827 -0.9653654 0.2069873 0.1588268 -0.9653657 0.1588263 0.2069863 -0.9653652 0.1588267 0.2069886 -0.9653665 0.09984225 0.2410376 -0.9653658 0.09984201 0.2410405 -0.9653654 0.03405457 0.2586697 -0.9653655 0.03405433 0.2586695 -0.9653659 -0.03405493 0.2586678 -0.9653652 -0.03405445 0.2586703 -0.9653665 -0.09984225 0.2410376 -0.9653657 -0.09984225 0.2410411 -0.9653657 -0.1588263 0.2069863 -0.9653652 -0.1588267 0.2069886 -0.9653658 -0.2069876 0.1588242 -0.9653658 -0.2069861 0.1588258 -0.965366 -0.2410391 0.09984332 -0.9653656 -0.241041 0.09984254 -0.9653661 -0.2586674 0.03405106 -0.9653655 -0.258669 0.03405803 -0.9653657 -0.2586688 -0.03405559 0 -0.2588257 -0.9659242 0 -0.2588201 -0.9659256 0 -0.7071089 -0.7071047 0 -0.707097 -0.7071167 0 -0.9659281 -0.258811 0 0.2588145 -0.965927 0 0.2588257 -0.9659242 0 0.7071082 -0.7071054 0 0.7071089 -0.7071047 0 0.9659225 -0.258832 0 -0.7071082 -0.7071054 0 -0.7070977 -0.707116 -0.1950761 -0.9807882 0 -0.4424255 -0.8968025 0.002249479 -0.2588496 -0.9659177 0 -0.6087332 -0.793375 0 -0.7070819 -0.7071313 7.57175e-4 -0.793341 -0.6087775 0 -0.8968903 -0.4422532 0 -0.9659293 -0.2588055 5.66904e-4 -0.9807863 -0.1950854 0 -0.1886976 -0.9485744 -0.2541651 -0.1887208 -0.2541743 -0.9485673 -0.1886627 -0.2541691 -0.9485802 -0.4300553 -0.2336652 -0.8720396 -0.5430447 -0.223724 -0.8093517 -0.1886724 -0.9485778 -0.2541711 -0.4301778 -0.8719868 -0.2336369 -0.5431087 -0.8093101 -0.2237193 -0.823307 -0.1539033 -0.5463328 -0.7830089 -0.1609932 -0.6008148 -0.5954799 -0.2079287 -0.7759958 -0.979448 -0.05220353 -0.1948244 -0.9794464 -0.05220401 -0.1948321 -0.8906381 -0.1176884 -0.4392188 -0.1886926 -0.6944063 -0.6944026 -0.1886948 -0.6943994 -0.694409 -0.5422629 -0.5941027 -0.5941323 -0.5422881 -0.5941163 -0.5940955 -0.8224027 -0.4022712 -0.402283 -0.8224008 -0.4022757 -0.4022825 -0.9794482 -0.142623 -0.1426187 -0.9794456 -0.1426281 -0.1426311 -0.5954278 -0.7760359 -0.2079282 -0.7829895 -0.6008399 -0.1609938 -0.8232848 -0.5463645 -0.1539089 -0.8906626 -0.4391782 -0.1176552 -0.9794464 -0.1948321 -0.05220502 -0.9794488 -0.1948208 -0.05220144 -0.1951004 0 -0.9807833 -0.1951262 0 -0.9807782 -0.442245 0 -0.8968944 -0.4422405 0 -0.8968966 -0.6087632 0 -0.7933521 -0.7933591 0 -0.608754 -0.7933645 0 -0.608747 -0.896868 0 -0.4422984 -0.8968658 0 -0.442303 -0.9807847 0 -0.1950932 -0.9807854 0 -0.1950896 -0.1886878 0.2541688 -0.9485754 -0.1887381 0.9485597 -0.25419 -0.188692 0.9485741 -0.2541705 -0.4300099 0.8720585 -0.2336781 -0.5430569 0.809346 -0.2237147 -0.1887116 0.2541747 -0.948569 -0.430047 0.233661 -0.8720448 -0.5430368 0.2237291 -0.8093556 -0.8232806 0.5463672 -0.1539219 -0.7830347 0.6007849 -0.1609791 -0.5954212 0.7760348 -0.2079511 -0.9794489 0.1948199 -0.0522046 -0.9794498 0.1948183 -0.05219399 -0.8906169 0.4392613 -0.1176901 -0.1887204 0.6944025 -0.6943989 -0.1887342 0.6943937 -0.694404 -0.542242 0.5941122 -0.5941418 -0.5422422 0.5941365 -0.5941172 -0.822408 0.4022738 -0.4022698 -0.8224136 0.4022706 -0.4022617 -0.9794498 0.1426133 -0.1426176 -0.9794496 0.142619 -0.1426131 -0.5954693 0.2079243 -0.7760052 -0.7830269 0.1609873 -0.6007928 -0.8232941 0.1538999 -0.5463531 -0.8906332 0.1176877 -0.439229 -0.9794492 0.05219942 -0.1948191 -0.9794465 0.05220544 -0.1948315 -0.2588471 0.9659183 0 -0.1951515 0.9807729 7.44262e-4 -0.4422425 0.8968955 0 -0.608731 0.7933767 0 -0.7074889 0.7067241 7.5247e-4 -0.7933779 0.6087294 0 -0.9238687 0.3827098 0 -0.9914198 0.1307083 -0.001498997 -0.8968513 0.4423267 0.002244293 -0.9807863 0.1950854 0 0 0.1305387 -0.9914433 0 0.1305568 -0.9914409 0 0.3827099 -0.9238687 0 0.3827034 -0.9238713 0 0.7070702 -0.7071434 0 0.7071644 -0.7070493 0 0.9659168 -0.258853 0 0.9659286 -0.2588087 0.707114 0.7070997 0 0.9238683 0.3827108 0 0.8968529 0.4423288 3.79848e-4 0.9914363 0.1305906 -5.66827e-4 0.9807863 0.1950854 0 0.7933755 0.6087309 0.001485943 0.608731 0.7933767 0 0.2588491 0.9659179 0 0.4422403 0.8968939 0.002195954 0.1951498 0.9807735 0 0.1886907 0.9485756 -0.2541655 0.1887156 0.2541673 -0.9485702 0.1886847 0.2541754 -0.9485743 0.4300471 0.2336607 -0.8720449 0.5430275 0.2237269 -0.8093624 0.1887416 0.9485577 -0.254195 0.4300032 0.8720616 -0.2336789 0.5430576 0.8093457 -0.2237142 0.8232922 0.1539005 -0.5463559 0.7830269 0.1609873 -0.6007928 0.5954692 0.207925 -0.776005 0.979448 0.05220353 -0.1948244 0.9794479 0.05220222 -0.1948256 0.8906332 0.1176877 -0.439229 0.1887483 0.6943988 -0.6943951 0.1886948 0.6943994 -0.694409 0.5422306 0.5941321 -0.5941321 0.5422468 0.5941197 -0.5941299 0.822408 0.4022738 -0.4022698 0.8224064 0.4022784 -0.4022685 0.9794498 0.1426133 -0.1426176 0.9794486 0.1426225 -0.142616 0.595425 0.776032 -0.2079504 0.7830347 0.6007849 -0.1609791 0.8232817 0.5463678 -0.1539139 0.8906169 0.4392613 -0.1176901 0.9794499 0.1948159 -0.05220073 0.9794486 0.1948227 -0.05219727 0.1950976 0 -0.9807839 0.1951291 0 -0.9807776 0.4422405 0 -0.8968966 0.442245 0 -0.8968944 0.6087632 0 -0.7933521 0.7933645 0 -0.608747 0.7933591 0 -0.608754 0.8968658 0 -0.442303 0.896868 0 -0.4422984 0.9807854 0 -0.1950896 0.9807847 0 -0.1950932 0.18866 -0.2541701 -0.9485806 0.1886685 -0.9485726 -0.2541935 0.1886934 -0.9485812 -0.2541431 0.4301732 -0.8719888 -0.2336375 0.5431111 -0.8093124 -0.2237054 0.1887116 -0.2541747 -0.948569 0.4300553 -0.2336655 -0.8720395 0.5430579 -0.2237255 -0.8093424 0.8232854 -0.5463649 -0.1539049 0.7829895 -0.6008399 -0.1609938 0.5954241 -0.7760385 -0.207929 0.979446 -0.1948351 -0.05219936 0.979449 -0.1948182 -0.05220669 0.8906626 -0.4391782 -0.1176552 0.1887167 -0.6943886 -0.6944139 0.18867 -0.694417 -0.694398 0.5422933 -0.5941036 -0.5941036 0.5422582 -0.5941138 -0.5941254 0.8224027 -0.4022712 -0.402283 0.822408 -0.4022679 -0.4022758 0.979447 -0.1426228 -0.1426271 0.9794471 -0.1426271 -0.1426213 0.59548 -0.207928 -0.7759959 0.7830089 -0.1609932 -0.6008148 0.8233053 -0.1539019 -0.5463358 0.8906381 -0.1176884 -0.4392188 0.9794479 -0.05220121 -0.1948256 0.9794465 -0.05220544 -0.1948315 0.9807863 -0.1950854 0 0.8968959 -0.4422363 0.00224322 0.9659283 -0.2588102 0 0.793341 -0.6087775 0 0.7070819 -0.7071313 7.57175e-4 0.6087332 -0.793375 0 0.4424268 -0.8968047 0 0.2588496 -0.9659175 5.68487e-4 0.1950761 -0.9807882 0 0.002106308 0.9995092 0.03125882 0.006455123 0.9995907 0.02787297 0.002242028 0.9992501 0.0386582 0.01515954 0.9961463 0.08638733 0.01017236 0.9992848 -0.03642106 0.04653996 0.2585734 0.9648699 0.03905993 0.9651744 0.258675 0.02573549 0.9993562 0.02500069 0.0668205 0.7055175 0.7055354 0.09033471 0.9935384 0.0687105 0.09065556 0.9877825 0.1267567 0.01937419 0.9891607 0.1455532 0.019997 0.9997894 0.004608929 0.9949908 0 0.09996724 0.9659118 0.005598187 0.2588109 0.956722 0.003731489 0.2909795 0.7933263 -0.004489362 0.6087803 0.8314641 0 0.5555785 0.6087527 0 0.79336 0.5531901 -0.003272116 0.8330487 0.2588162 0.005002439 0.9659137 0.1950821 0 0.9807869 0 0.2588474 0.9659183 0 0.2587894 0.9659338 0 0.7071391 0.7070745 0 0.707081 0.7071326 0 0.9659031 0.2589039 0 0.9659322 0.2587957 0.06916445 0.2581732 0.9636197 0.7760288 0.2079297 0.5954365 0.9351161 0.2505692 0.2505455 0.9351123 0.2505545 0.2505741 0.6845723 0.6845553 0.2504891 0.6845352 0.6845627 0.2505703 0.2505922 0.9350975 0.2505922 0.2505557 0.9351254 0.2505243 0.2582263 0.06918764 0.9636039 0.6008515 0.1609959 0.7829802 0.1890134 0.1890152 0.9636116 0.6560565 0.2717216 0.7041003 0.5086078 0.5086237 0.6947087 0.5085959 0.5085959 0.6947377 0.1861596 0.6947881 0.6947044 0.1861171 0.694814 0.6946898 0.1951501 0.9807735 0 0.442246 0.8968912 0.002153992 0.2588496 0.9659177 0 0.608729 0.7933784 0 0.7071138 0.7070994 7.24928e-4 0.7933795 0.6087273 0 0.8968455 0.4423443 0 0.9659262 0.258817 5.42811e-4 0.980786 0.195087 0 0.1886847 0.2541753 -0.9485743 0.4300474 0.2336581 -0.8720455 0.5430276 0.2237265 -0.8093625 0.4300115 0.8720564 -0.2336834 0.5430578 0.8093498 -0.2236993 0.8232993 0.1539039 -0.5463442 0.7830163 0.1609815 -0.6008081 0.5954796 0.2079315 -0.7759953 0.979448 0.0522024 -0.1948244 0.9794479 0.05220121 -0.1948256 0.8906337 0.1176838 -0.4392292 0.1887487 0.6943969 -0.6943969 0.1886944 0.694401 -0.6944074 0.5422318 0.5941298 -0.5941334 0.5422471 0.5941191 -0.5941302 0.8224065 0.402278 -0.4022685 0.9794515 0.1426093 -0.1426093 0.9794491 0.142619 -0.1426161 0.5954276 0.7760298 -0.2079513 0.7830375 0.6007812 -0.1609796 0.8232786 0.546374 -0.1539092 0.8906206 0.4392505 -0.1177032 0.9794514 0.1948077 -0.05220079 0.9794496 0.1948182 -0.05219733 0.4422494 0 -0.8968922 0.6087578 0 -0.7933562 0.7933698 0 -0.60874 0.8968636 0 -0.4423074 0.1886927 -0.9485815 -0.2541421 0.4301815 -0.8719837 -0.2336419 0.5431073 -0.8093152 -0.2237038 0.4300473 -0.2336587 -0.8720453 0.5430645 -0.2237282 -0.8093371 0.8232817 -0.5463706 -0.1539041 0.7829922 -0.6008362 -0.1609944 0.5954239 -0.7760325 -0.207952 0.979447 -0.1948307 -0.05219942 0.9794498 -0.1948141 -0.05220675 0.8906676 -0.439168 -0.1176559 0.1887171 -0.6943867 -0.6944156 0.1886695 -0.694419 -0.6943962 0.5422945 -0.5941012 -0.5941049 0.542258 -0.5941141 -0.5941252 0.8224074 -0.4022692 -0.4022755 0.9794476 -0.1426229 -0.1426229 0.9794476 -0.1426237 -0.1426213 0.5954689 -0.207927 -0.7760046 0.7829983 -0.1609874 -0.6008301 0.8233065 -0.1539063 -0.5463325 0.8906385 -0.1176845 -0.439219 0.9794483 -0.05220437 -0.1948226 0.9807859 -0.1950878 0 0.8968953 -0.4422381 0.00210303 0.9659289 -0.2588078 0 0.7933378 -0.6087818 0 0.7070854 -0.7071279 7.09855e-4 0.6087291 -0.7933781 0 0.4424208 -0.8968076 0 0.2588506 -0.9659173 5.31787e-4 0.1950769 -0.9807879 0 -0.001053631 0.9999995 0 -0.002106308 0.9995092 0.03125882 -0.01978325 0.9891532 0.14555 -0.009185671 0.9999472 0.004611432 -0.01536828 0.9962582 0.08504933 -0.00433743 0.9999893 0.001635134 -0.006537318 0.9995902 0.02787315 0 0.9992528 0.03865146 -0.04653996 0.2585734 0.9648699 -0.09065556 0.9877825 0.1267567 -0.07371073 0.7051751 0.7051914 -0.0298196 0.9961643 0.08226466 -0.04149514 0.9650932 0.2585987 -0.004338085 0.9995307 0.03032463 0 0.2588474 0.9659183 0 0.2587894 0.9659338 0 0.707139 0.7070746 0 0.7070811 0.7071325 -0.2588264 0 0.9659239 -0.2588218 0 0.9659251 -0.707096 0 0.7071176 -0.7070968 0 0.7071168 -0.9219762 0 0.3872467 -0.9659091 0.005938053 0.2588134 -0.9907844 0 0.1354489 -0.6845673 0.6845605 0.2504885 -0.6845383 0.684554 0.2505857 -0.5085627 0.5085787 0.6947747 -0.5086062 0.5085924 0.6947328 -0.1890134 0.1890152 0.9636116 -0.9351025 0.250569 0.2505962 -0.9351207 0.2505528 0.250545 -0.6946784 0.1861307 0.6948219 -0.6948745 0.1861811 0.6946121 -0.2582124 0.06918394 0.9636077 -0.2505913 0.9350979 0.2505913 -0.2505556 0.9351212 0.2505399 -0.1861557 0.6947886 0.6947049 -0.1861028 0.6947607 0.6947469 -0.06916445 0.2581732 0.9636197 -0.980786 0.195087 0 -0.8968508 0.442328 0.002148211 -0.9659252 0.2588215 0 -0.7933795 0.6087273 0 -0.7071138 0.7070994 7.24928e-4 -0.608729 0.7933784 0 -0.4422395 0.896897 0 -0.2588507 0.9659172 5.44298e-4 -0.1951501 0.9807735 0 -0.1886913 0.9485744 -0.2541695 -0.4300182 0.8720533 -0.2336826 -0.5430532 0.809349 -0.2237132 -0.4300473 0.2336587 -0.8720453 -0.8232791 0.5463743 -0.1539052 -0.7830375 0.6007812 -0.1609796 -0.5954239 0.7760325 -0.207952 -0.9794497 0.1948155 -0.05220466 -0.9794505 0.1948142 -0.05219405 -0.8906206 0.4392505 -0.1177032 -0.1887209 0.6944006 -0.6944006 -0.1887337 0.6943957 -0.6944022 -0.5422432 0.5941098 -0.5941431 -0.542242 0.5941368 -0.594117 -0.822413 0.4022719 -0.4022614 -0.9794509 0.1426135 -0.1426092 -0.9794501 0.1426156 -0.1426132 -0.5954796 0.2079308 -0.7759954 -0.7830163 0.1609815 -0.6008081 -0.8232973 0.1539046 -0.546347 -0.8906337 0.1176838 -0.4392292 -0.9794465 0.05220431 -0.1948315 -0.4422494 0 -0.8968922 -0.6087578 0 -0.7933562 -0.7933698 0 -0.60874 -0.8968636 0 -0.4423074 -0.1886627 -0.254169 -0.9485803 -0.4300474 -0.2336581 -0.8720455 -0.543058 -0.223729 -0.8093414 -0.430186 -0.8719815 -0.2336414 -0.5431088 -0.8093141 -0.2237044 -0.8233067 -0.1539053 -0.5463327 -0.7829983 -0.1609874 -0.6008301 -0.5954688 -0.2079277 -0.7760045 -0.979448 -0.0522024 -0.1948244 -0.9794481 -0.05220299 -0.1948239 -0.8906385 -0.1176845 -0.439219 -0.1886931 -0.6944044 -0.6944044 -0.1886944 -0.694401 -0.6944074 -0.5422641 -0.5941003 -0.5941336 -0.5422884 -0.5941157 -0.5940958 -0.8224009 -0.4022753 -0.4022827 -0.9794487 -0.1426188 -0.1426188 -0.9794467 -0.1426248 -0.1426265 -0.5954276 -0.7760298 -0.2079513 -0.7829922 -0.6008362 -0.1609944 -0.8232817 -0.5463706 -0.1539041 -0.8906676 -0.439168 -0.1176559 -0.979448 -0.1948239 -0.05220514 -0.9794497 -0.1948164 -0.05220144 -0.1950769 -0.9807879 0 -0.4424273 -0.896802 0.002104282 -0.2588495 -0.9659177 0 -0.6087291 -0.7933781 0 -0.7070854 -0.7071279 7.09855e-4 -0.7933378 -0.6087818 0 -0.8968899 -0.4422542 0 -0.9659299 -0.2588034 5.31473e-4 -0.9807859 -0.1950878 0 0.9653662 -0.2586673 -0.03405106 0.9653658 -0.2410404 -0.09984236 0.9653658 -0.2410399 -0.09984308 0.9653661 -0.2069851 -0.1588255 0.9653659 -0.2069872 -0.1588238 0.9653654 -0.1588262 -0.206988 0.9653655 -0.1588268 -0.2069869 0.9653654 -0.09984272 -0.2410422 0.9653667 -0.09984207 -0.2410371 0.965366 -0.03405404 -0.2586676 0.9653656 -0.03405499 -0.2586689 0.9653655 0.03405427 -0.2586695 0.9653655 0.03405445 -0.2586692 0.9653654 0.09984272 -0.2410422 0.9653664 0.09984236 -0.2410379 0.9653654 0.1588262 -0.206988 0.9653654 0.158827 -0.2069871 0.9653654 0.2069875 -0.1588273 0.965366 0.2069852 -0.1588264 0.9653659 0.2410399 -0.09984219 0.9653661 0.2410402 -0.09983903 0.965366 0.2586676 -0.03405392 0.9653657 0.2586688 -0.03405559 0.9653657 0.2586691 0.03405034 0.9653658 0.2586674 0.0340597 0.965366 0.2410409 0.09983873 0.965366 0.2410394 0.09984332 0.9653659 0.206986 0.1588258 0.9653651 0.2069875 0.1588283 0.9653658 0.1588269 0.2069851 0.9653648 0.1588264 0.2069907 0.9653665 0.09984242 0.2410376 0.9653656 0.09984201 0.2410414 0.9653658 0.03405416 0.2586686 0.9653651 0.03405469 0.2586708 0.9653661 -0.03405445 0.2586668 0.9653648 -0.03405481 0.2586718 0.9653667 -0.09984207 0.2410367 0.9653654 -0.09984225 0.241042 0.9653651 -0.1588268 0.2069888 0.9653657 -0.1588265 0.2069865 0.9653654 -0.2069875 0.158827 0.9653664 -0.2069862 0.1588228 0.965366 -0.2410395 0.09984201 0.9653655 -0.2410409 0.09984397 0.9653659 -0.2586681 0.0340541 0.9653657 -0.2586683 0.03405553 0.9653655 -0.258669 -0.03405797 0.7040665 -0.7040593 -0.09268683 0.704065 -0.6560784 -0.2717601 0.7040639 -0.6560788 -0.2717624 0.7040662 -0.5633879 -0.4323021 0.7040624 -0.5633867 -0.4323096 0.704065 -0.4323046 -0.5633872 0.7040623 -0.4323077 -0.5633882 0.7040617 -0.2717567 -0.6560835 0.7040644 -0.2717587 -0.6560797 0.704059 -0.09269309 -0.704066 0.7040664 -0.09269189 -0.7040587 0.7040625 0.09269273 -0.7040625 0.7040574 0.092691 -0.704068 0.7040613 0.2717593 -0.6560827 0.7040649 0.2717588 -0.6560792 0.7040576 0.4323022 -0.5633983 0.7040647 0.4323063 -0.5633864 0.7040646 0.5633927 -0.4322983 0.7040615 0.563391 -0.4323055 0.7040579 0.656085 -0.2717629 0.7040624 0.6560829 -0.2717563 0.7040594 0.7040648 -0.09269952 0.7040631 0.7040617 -0.09269481 0.7040623 0.704061 0.09270638 0.7040607 0.704065 0.09268778 0.704061 0.6560846 0.2717555 0.704058 0.6560841 0.2717645 0.7040617 0.5633952 0.4322999 0.7040647 0.5633887 0.4323034 0.7040622 0.4323029 0.5633921 0.7040602 0.4323053 0.5633928 0.7040628 0.27176 0.6560808 0.7040656 0.2717585 0.6560786 0.7040644 0.0926907 0.7040609 0.7040607 0.09269064 0.7040646 0.7040644 -0.09269177 0.7040608 0.7040638 -0.09269112 0.7040615 0.7040646 -0.2717596 0.6560792 0.7040584 -0.2717585 0.6560863 0.7040632 -0.4323057 0.5633886 0.7040667 -0.4323051 0.5633848 0.7040618 -0.5633882 0.4323087 0.7040657 -0.5633878 0.4323028 0.7040646 -0.6560814 0.2717542 0.7040633 -0.6560766 0.2717691 0.7040666 -0.7040595 0.09268486 0.7040637 -0.7040622 0.09268742 0.7040631 -0.7040631 -0.0926851 0.2567482 -0.9582104 -0.1261487 0.2567486 -0.8929085 -0.3698578 0.2567433 -0.892912 -0.3698529 0.2567423 -0.7667564 -0.5883606 0.2567575 -0.7667592 -0.5883502 0.2567529 -0.5883522 -0.7667591 0.256756 -0.5883544 -0.7667564 0.2567551 -0.3698521 -0.8929089 0.2567527 -0.3698585 -0.8929069 0.2567573 -0.1261507 -0.9582076 0.2567462 -0.1261519 -0.9582104 0.2567509 0.126151 -0.9582092 0.256757 0.1261515 -0.9582076 0.2567486 0.3698527 -0.8929105 0.2567524 0.3698535 -0.8929091 0.2567589 0.5883579 -0.7667528 0.2567523 0.5883551 -0.7667573 0.2567552 0.7667536 -0.5883585 0.2567538 0.7667599 -0.5883509 0.2567534 0.8929072 -0.3698573 0.2567577 0.8929085 -0.3698514 0.2567577 0.9582071 -0.1261541 0.2567501 0.9582108 -0.1261417 0.256749 0.9582111 0.1261411 0.2567584 0.9582066 0.1261556 0.2567566 0.8929065 0.369857 0.256754 0.8929093 0.3698517 0.2567539 0.7667608 0.5883496 0.2567523 0.7667535 0.58836 0.2567561 0.5883517 0.7667585 0.2567573 0.588361 0.7667509 0.2567551 0.3698521 0.8929089 0.2567466 0.3698559 0.8929098 0.2567509 0.126151 0.9582092 0.2567463 0.1261497 0.9582107 0.2567476 -0.1261512 0.9582101 0.2567465 -0.1261496 0.9582106 0.2567518 -0.3698571 0.8929077 0.2567536 -0.3698553 0.892908 0.2567561 -0.5883517 0.7667585 0.2567537 -0.5883548 0.766757 0.2567555 -0.7667605 0.5883494 0.2567434 -0.7667554 0.5883615 0.2567428 -0.8929123 0.3698525 0.2567492 -0.892908 0.3698583 0.256748 -0.9582105 0.1261479 0.2567487 -0.9582101 0.1261489 0.2567491 -0.9582102 -0.1261476 0 0.2588193 0.9659258 0 0.7071068 0.7071068 0 0.7071073 0.7071063 0 0.9659256 0.2588199 0 0.9659261 0.2588184 0 0.9659256 -0.2588199 0 0.9659259 -0.2588191 0 0.7071065 -0.7071071 0 0.7071076 -0.707106 0 0.25882 -0.9659256 0 0.2588193 -0.9659258 0 -0.2588194 -0.9659258 0 -0.2588186 -0.965926 0 -0.7071065 -0.7071071 0 -0.7071075 -0.7071062 0 -0.9659256 -0.2588202 0 -0.9659259 -0.2588191 0 -0.9659256 0.2588199 0 -0.9659259 0.2588187 0 -0.7071067 0.7071069 0 -0.7071073 0.7071063 0 -0.2588194 0.9659258 0 -0.2588186 0.965926 0 0.25882 0.9659256 1 -4.65664e-6 0 1 2.32831e-6 0 1 -2.3283e-6 0 1 1.86264e-5 0 1 -4.65662e-6 0 1 -2.3283e-6 0 1 -2.3283e-6 0 1 -2.32831e-6 0 0 0.7071068 -0.7071068 0 0.7071073 -0.7071063 0 0.7071065 0.7071071 0 0.7071076 0.707106 0 -0.7071065 0.7071071 0 -0.7071075 0.7071062 0 -0.9659256 0.2588202 0 -0.9659261 0.2588184 0 -0.9659256 -0.2588199 0 -0.9659258 -0.2588195 0 -0.7071067 -0.7071069 0 -0.7071073 -0.7071063 -1 -1.86265e-5 0 -1 4.65663e-6 0 -1 2.32831e-6 0 -1 2.32831e-6 0 -1 4.65663e-6 0 -1 -2.3283e-6 0 -1 2.32831e-6 0 0 0.2588198 0.9659257 0 0.9659259 0.258819 0 0.9659258 0.2588192 0 0.9659257 -0.2588199 0 0.9659257 -0.2588197 0 0.2588198 -0.9659257 0 -0.2588191 -0.9659259 0 -0.2588191 -0.9659259 0 -0.7071067 -0.7071069 0 -0.7071068 -0.7071068 0 -0.9659257 -0.2588197 0 -0.9659259 0.258819 0 -0.7071068 0.7071068 0 -0.7071067 0.7071069 0 -0.2588191 0.9659259 0 -0.2588191 0.9659259 0 -0.2588171 0.9659264 0 -0.258817 0.9659264 0 -0.7071068 0.7071068 0 -0.9659264 0.258817 0 -0.9659268 -0.2588155 0 -0.7071039 -0.7071098 0 -0.2588224 -0.9659249 0 -0.2588225 -0.965925 0 0.2588224 -0.9659249 0 0.2588225 -0.965925 0 0.7071039 -0.7071097 0 0.9659253 -0.2588211 0 0.9659254 -0.258821 0 0.965925 0.2588224 0 0.9659249 0.2588226 0 0.7071069 0.7071067 0 0.2588171 0.9659264 0 0.258817 0.9659264</float_array>
          <technique_common>
            <accessor source="#Chassi_Link-mesh-normals-array" count="1023" stride="3">
              <param name="X" type="float"/>
              <param name="Y" type="float"/>
              <param name="Z" type="float"/>
            </accessor>
          </technique_common>
        </source>
        <vertices id="Chassi_Link-mesh-vertices">
          <input semantic="POSITION" source="#Chassi_Link-mesh-positions"/>
        </vertices>
        <triangles material="Material-material" count="1470">
          <input semantic="VERTEX" source="#Chassi_Link-mesh-vertices" offset="0"/>
          <input semantic="NORMAL" source="#Chassi_Link-mesh-normals" offset="1"/>
          <p>0 0 1 0 2 0 2 0 1 0 3 0 2 0 3 0 4 0 5 0 6 0 7 0 3 0 8 0 4 0 4 0 8 0 5 0 4 0 5 0 9 0 9 0 5 0 7 0 10 0 11 0 12 0 12 1 11 1 13 1 12 0 13 0 14 0 14 2 13 2 15 2 14 0 15 0 16 0 17 0 18 0 19 0 20 0 21 0 22 0 22 0 23 0 20 0 20 3 23 3 17 3 20 4 17 4 24 4 24 0 17 0 19 0 25 0 26 0 27 0 27 0 26 0 28 0 27 5 28 5 29 5 29 0 28 0 30 0 29 0 30 0 31 0 31 0 30 0 32 0 33 6 32 6 34 6 34 6 32 6 35 6 19 7 36 7 37 7 37 7 36 7 38 7 39 6 40 6 41 6 41 6 40 6 42 6 43 7 44 7 45 7 45 7 44 7 46 7 47 8 48 8 49 8 49 8 48 8 50 8 46 9 51 9 45 9 45 9 51 9 52 9 53 8 54 8 55 8 55 8 54 8 56 8 57 9 58 9 59 9 60 9 61 9 62 9 63 9 64 9 59 9 59 9 64 9 65 9 59 9 65 9 57 9 60 10 62 10 16 10 14 9 16 9 57 9 57 9 16 9 62 9 57 9 62 9 58 9 58 9 62 9 66 9 58 9 66 9 67 9 67 9 66 9 68 9 69 8 70 8 71 8 10 8 12 8 72 8 73 8 74 8 71 8 71 8 74 8 75 8 71 8 75 8 69 8 10 11 72 11 76 11 77 8 76 8 69 8 69 8 76 8 72 8 69 8 72 8 70 8 70 8 72 8 78 8 70 8 78 8 79 8 79 8 78 8 80 8 81 9 40 9 82 9 82 9 40 9 39 9 79 0 80 0 46 0 46 0 80 0 51 0 42 0 40 0 44 0 44 0 40 0 46 0 74 0 73 0 81 0 81 0 73 0 40 0 48 0 47 0 63 0 63 0 47 0 64 0 54 0 53 0 68 0 68 0 53 0 67 0 32 0 33 0 19 0 19 0 33 0 36 0 83 12 84 12 85 12 85 12 84 12 86 12 85 12 86 12 87 12 87 13 86 13 88 13 87 12 88 12 89 12 89 12 88 12 90 12 89 14 90 14 83 14 83 12 90 12 84 12 41 8 91 8 43 8 43 8 91 8 92 8 43 8 92 8 44 8 44 8 92 8 86 8 44 8 86 8 42 8 42 8 86 8 84 8 42 8 84 8 41 8 41 8 84 8 91 8 90 7 93 7 94 7 94 15 30 15 90 15 90 7 30 7 28 7 90 7 28 7 84 7 68 7 84 7 54 7 54 7 84 7 28 7 54 7 28 7 56 7 56 7 28 7 95 7 56 7 95 7 66 7 95 7 91 7 66 7 66 7 91 7 75 7 66 7 75 7 68 7 68 7 75 7 74 7 68 7 74 7 84 7 84 7 74 7 81 7 84 7 81 7 91 7 91 7 81 7 82 7 91 7 82 7 75 7 34 9 93 9 33 9 33 9 93 9 90 9 33 9 90 9 36 9 36 16 90 16 88 16 36 9 88 9 38 9 38 9 88 9 96 9 38 9 96 9 34 9 34 17 96 17 93 17 97 6 20 6 47 6 98 6 96 6 24 6 24 6 96 6 88 6 47 18 49 18 97 18 97 6 49 6 65 6 97 6 65 6 92 6 86 6 51 6 80 6 51 6 86 6 52 6 52 6 86 6 92 6 52 6 92 6 78 6 78 6 92 6 65 6 78 6 65 6 80 6 80 6 65 6 64 6 80 6 64 6 86 6 86 6 64 6 47 6 86 6 47 6 88 6 88 6 47 6 20 6 88 6 20 6 24 6 46 9 40 9 85 9 85 9 40 9 83 9 32 8 19 8 89 8 89 8 19 8 87 8 32 8 30 8 35 8 35 8 30 8 94 8 35 8 94 8 37 8 37 8 94 8 98 8 37 8 98 8 19 8 19 8 98 8 24 8 98 0 94 0 96 0 96 0 94 0 93 0 99 9 95 9 26 9 26 9 95 9 28 9 100 0 97 0 101 0 101 0 97 0 92 0 101 0 92 0 102 0 102 0 92 0 91 0 102 0 91 0 99 0 99 0 91 0 95 0 97 9 100 9 20 9 20 9 100 9 21 9 75 12 82 12 69 12 69 12 82 12 39 12 62 12 55 12 66 12 66 12 55 12 56 12 72 12 45 12 78 12 78 12 45 12 52 12 65 12 49 12 57 12 57 12 49 12 50 12 102 9 39 9 101 9 101 9 39 9 45 9 39 12 41 12 45 12 45 12 41 12 43 12 38 12 34 12 37 12 37 12 34 12 35 12 103 9 104 9 31 9 31 9 104 9 29 9 32 6 89 6 31 6 31 6 89 6 83 6 105 19 106 19 25 19 83 6 40 6 73 6 71 6 58 6 73 6 73 6 58 6 67 6 73 6 67 6 83 6 83 6 67 6 53 6 69 6 39 6 77 6 77 6 39 6 102 6 77 6 102 6 61 6 61 6 102 6 99 6 61 6 99 6 62 6 106 6 31 6 25 6 25 6 31 6 83 6 25 6 83 6 26 6 26 6 83 6 53 6 26 6 53 6 99 6 99 20 53 20 55 20 99 6 55 6 62 6 106 21 107 21 31 21 31 6 107 6 108 6 31 22 108 22 103 22 103 6 108 6 109 6 103 23 109 23 110 23 110 6 111 6 103 6 103 24 111 24 112 24 103 6 112 6 113 6 113 25 112 25 114 25 114 6 115 6 113 6 113 26 115 26 116 26 113 27 116 27 25 27 25 6 116 6 117 6 25 6 117 6 105 6 118 8 113 8 27 8 27 8 113 8 25 8 27 28 119 28 120 28 121 29 104 29 122 29 122 7 104 7 118 7 122 30 118 30 123 30 123 31 118 31 124 31 27 32 120 32 118 32 118 33 120 33 125 33 118 34 125 34 124 34 121 35 126 35 104 35 104 36 126 36 127 36 104 37 127 37 29 37 127 7 128 7 29 7 29 38 128 38 129 38 29 7 129 7 27 7 27 39 129 39 130 39 27 40 130 40 119 40 113 0 118 0 103 0 103 0 118 0 104 0 131 9 132 9 17 9 17 9 132 9 18 9 133 6 134 6 23 6 23 41 134 41 135 41 23 6 135 6 17 6 133 6 23 6 136 6 136 42 23 42 137 42 136 43 137 43 138 43 135 6 139 6 17 6 17 44 139 44 140 44 17 45 140 45 131 45 131 46 140 46 141 46 131 47 141 47 142 47 142 48 143 48 131 48 131 49 143 49 144 49 131 6 144 6 137 6 137 50 144 50 145 50 137 51 145 51 138 51 146 8 137 8 22 8 22 8 137 8 23 8 101 7 45 7 72 7 48 7 63 7 85 7 46 7 85 7 79 7 79 7 85 7 63 7 79 7 63 7 70 7 70 7 63 7 59 7 72 7 12 7 101 7 101 7 12 7 14 7 101 7 14 7 100 7 19 7 18 7 87 7 87 7 18 7 22 7 87 7 22 7 21 7 85 7 87 7 48 7 48 7 87 7 21 7 48 7 21 7 50 7 50 7 21 7 100 7 50 7 100 7 57 7 57 7 100 7 14 7 132 52 147 52 148 52 132 53 148 53 18 53 148 7 149 7 18 7 18 7 149 7 150 7 18 7 150 7 22 7 22 54 150 54 151 54 152 7 153 7 146 7 146 55 153 55 154 55 146 7 154 7 132 7 132 56 154 56 155 56 132 7 155 7 147 7 151 57 156 57 22 57 22 7 156 7 157 7 22 58 157 58 146 58 146 7 157 7 158 7 146 59 158 59 152 59 137 0 146 0 131 0 131 0 146 0 132 0 60 0 159 0 61 0 61 60 159 60 160 60 61 0 160 0 77 0 77 61 160 61 161 61 77 0 161 0 76 0 70 12 59 12 71 12 71 12 59 12 58 12 162 12 163 12 164 12 164 12 163 12 60 12 164 12 60 12 16 12 165 12 166 12 76 12 76 62 166 62 167 62 76 12 167 12 10 12 168 63 169 63 165 63 165 64 169 64 170 64 165 65 170 65 166 65 166 66 170 66 171 66 172 67 165 67 76 67 172 68 76 68 173 68 172 69 174 69 175 69 175 70 176 70 172 70 172 71 176 71 177 71 172 72 177 72 165 72 165 73 177 73 178 73 165 74 178 74 168 74 76 75 161 75 173 75 173 76 161 76 160 76 173 77 160 77 179 77 179 78 160 78 159 78 179 79 159 79 180 79 180 80 159 80 60 80 180 81 60 81 181 81 60 82 163 82 181 82 181 83 163 83 162 83 181 83 162 83 182 83 182 84 162 84 164 84 182 84 164 84 183 84 183 85 164 85 16 85 183 86 16 86 184 86 185 87 186 87 187 87 187 88 186 88 188 88 187 89 188 89 189 89 190 90 185 90 167 90 167 91 185 91 187 91 167 92 187 92 10 92 10 93 187 93 191 93 10 94 191 94 11 94 11 95 191 95 192 95 11 96 192 96 13 96 13 97 192 97 184 97 13 98 184 98 15 98 15 99 184 99 16 99 171 100 193 100 166 100 166 101 193 101 194 101 166 102 194 102 167 102 167 103 194 103 195 103 167 104 195 104 196 104 196 105 197 105 167 105 167 106 197 106 198 106 167 107 198 107 190 107 191 0 187 0 192 0 192 108 187 108 199 108 181 0 182 0 183 0 200 0 179 0 201 0 201 109 179 109 180 109 172 0 173 0 202 0 202 0 173 0 179 0 202 0 179 0 203 0 203 0 179 0 200 0 180 0 181 0 201 0 201 0 181 0 183 0 201 0 183 0 204 0 204 110 183 110 184 110 204 111 184 111 205 111 205 0 184 0 192 0 205 0 192 0 206 0 206 0 192 0 199 0 168 112 207 112 169 112 169 12 207 12 170 12 197 12 208 12 198 12 198 12 208 12 190 12 209 8 210 8 211 8 211 8 210 8 212 8 211 113 212 113 213 113 214 8 215 8 216 8 216 8 215 8 217 8 216 113 217 113 218 113 194 8 219 8 220 8 220 8 219 8 221 8 220 8 221 8 222 8 222 114 221 114 213 114 222 8 213 8 218 8 218 115 213 115 212 115 218 116 212 116 216 116 174 7 172 7 202 7 223 7 224 7 225 7 225 7 224 7 226 7 227 7 228 7 229 7 202 7 225 7 174 7 174 117 225 117 226 117 174 7 226 7 230 7 230 7 226 7 227 7 230 118 227 118 231 118 231 7 227 7 229 7 232 9 233 9 0 9 0 9 233 9 201 9 0 119 201 119 1 119 1 9 201 9 204 9 1 9 204 9 234 9 234 9 204 9 235 9 199 6 187 6 189 6 199 6 189 6 236 6 236 6 189 6 237 6 236 6 237 6 238 6 239 6 240 6 241 6 241 6 240 6 236 6 241 6 236 6 242 6 242 6 236 6 238 6 242 6 238 6 243 6 243 6 238 6 244 6 9 6 7 6 245 6 245 6 7 6 246 6 247 6 248 6 249 6 249 6 248 6 245 6 249 6 245 6 250 6 250 6 245 6 246 6 250 6 246 6 251 6 251 120 246 120 252 120 253 0 254 0 255 0 255 0 254 0 256 0 257 7 258 7 259 7 259 7 258 7 260 7 259 7 260 7 261 7 261 121 260 121 262 121 260 122 263 122 262 122 262 123 263 123 264 123 262 7 264 7 265 7 265 124 264 124 266 124 265 7 266 7 267 7 267 7 266 7 268 7 267 125 268 125 269 125 269 7 268 7 270 7 269 7 270 7 271 7 271 7 270 7 272 7 271 7 272 7 5 7 272 126 273 126 5 126 5 127 273 127 274 127 5 7 274 7 6 7 6 128 274 128 275 128 6 129 275 129 257 129 257 7 275 7 276 7 257 7 276 7 258 7 277 0 278 0 279 0 279 0 278 0 280 0 258 130 281 130 260 130 260 131 281 131 282 131 260 132 282 132 263 132 263 133 282 133 283 133 263 134 283 134 264 134 264 135 283 135 284 135 264 136 284 136 266 136 266 137 284 137 285 137 266 138 285 138 268 138 268 139 285 139 286 139 268 140 286 140 270 140 270 141 286 141 287 141 270 142 287 142 272 142 272 143 287 143 288 143 272 144 288 144 273 144 273 145 288 145 289 145 273 146 289 146 274 146 274 147 289 147 290 147 274 148 290 148 275 148 275 149 290 149 291 149 275 150 291 150 276 150 276 151 291 151 292 151 276 152 292 152 258 152 258 153 292 153 281 153 293 154 294 154 295 154 295 155 294 155 296 155 295 156 296 156 297 156 297 157 296 157 298 157 297 158 298 158 299 158 299 159 298 159 300 159 299 160 300 160 301 160 301 161 300 161 302 161 301 162 302 162 303 162 303 163 302 163 304 163 303 164 304 164 305 164 305 165 304 165 306 165 305 166 306 166 307 166 307 167 306 167 308 167 307 168 308 168 309 168 309 168 308 168 310 168 309 169 310 169 311 169 311 170 310 170 312 170 311 171 312 171 313 171 313 171 312 171 314 171 313 172 314 172 315 172 315 173 314 173 316 173 315 174 316 174 317 174 317 175 316 175 318 175 317 176 318 176 319 176 319 177 318 177 320 177 319 178 320 178 321 178 321 179 320 179 322 179 321 180 322 180 323 180 323 181 322 181 324 181 323 182 324 182 325 182 325 183 324 183 326 183 325 184 326 184 327 184 327 184 326 184 328 184 327 185 328 185 329 185 329 186 328 186 330 186 329 187 330 187 331 187 331 187 330 187 332 187 331 188 332 188 333 188 333 189 332 189 334 189 333 190 334 190 335 190 335 191 334 191 336 191 335 192 336 192 337 192 337 193 336 193 338 193 337 194 338 194 339 194 339 195 338 195 340 195 339 196 340 196 293 196 293 197 340 197 294 197 341 198 342 198 343 198 343 7 342 7 344 7 343 7 344 7 345 7 346 199 347 199 343 199 343 200 347 200 348 200 343 201 348 201 341 201 349 202 350 202 343 202 343 203 350 203 351 203 343 204 351 204 346 204 352 7 353 7 343 7 343 205 353 205 354 205 343 206 354 206 349 206 355 7 356 7 343 7 343 7 356 7 357 7 343 7 357 7 352 7 358 7 359 7 343 7 343 206 359 206 360 206 343 200 360 200 355 200 361 7 362 7 343 7 343 207 362 207 363 207 343 203 363 203 358 203 345 7 364 7 343 7 343 208 364 208 365 208 343 200 365 200 361 200 366 209 281 209 292 209 367 210 291 210 290 210 368 211 284 211 283 211 367 212 369 212 291 212 291 213 369 213 370 213 291 214 370 214 292 214 292 6 370 6 371 6 292 6 371 6 366 6 289 215 372 215 290 215 290 216 372 216 373 216 290 217 373 217 367 217 374 218 287 218 286 218 282 219 375 219 283 219 283 220 375 220 376 220 283 221 376 221 368 221 374 222 377 222 287 222 287 223 377 223 378 223 287 224 378 224 288 224 285 225 379 225 286 225 286 6 379 6 380 6 286 6 380 6 374 6 366 226 381 226 281 226 281 227 381 227 382 227 281 6 382 6 282 6 282 228 382 228 383 228 282 229 383 229 375 229 378 6 384 6 288 6 288 230 384 230 385 230 288 231 385 231 289 231 289 232 385 232 386 232 289 233 386 233 372 233 368 6 387 6 284 6 284 234 387 234 388 234 284 6 388 6 285 6 285 235 388 235 389 235 285 236 389 236 379 236 320 237 390 237 322 237 322 238 390 238 391 238 322 239 391 239 324 239 324 240 391 240 392 240 324 241 392 241 326 241 326 242 392 242 393 242 326 243 393 243 328 243 328 244 393 244 394 244 328 245 394 245 330 245 330 246 394 246 395 246 330 247 395 247 332 247 332 248 395 248 396 248 332 249 396 249 334 249 334 250 396 250 397 250 334 251 397 251 336 251 336 252 397 252 398 252 336 253 398 253 338 253 338 254 398 254 399 254 338 255 399 255 340 255 340 256 399 256 400 256 340 257 400 257 294 257 294 258 400 258 401 258 294 259 401 259 296 259 296 260 401 260 402 260 296 261 402 261 298 261 298 262 402 262 403 262 298 263 403 263 300 263 300 264 403 264 404 264 300 265 404 265 302 265 302 266 404 266 405 266 302 267 405 267 304 267 304 268 405 268 406 268 304 269 406 269 306 269 306 270 406 270 407 270 306 271 407 271 308 271 308 272 407 272 408 272 308 273 408 273 310 273 310 274 408 274 409 274 310 275 409 275 312 275 312 276 409 276 410 276 312 277 410 277 314 277 314 278 410 278 411 278 314 279 411 279 316 279 316 280 411 280 412 280 316 281 412 281 318 281 318 282 412 282 413 282 318 283 413 283 320 283 320 284 413 284 390 284 413 285 414 285 390 285 390 286 414 286 415 286 390 287 415 287 391 287 391 288 415 288 416 288 391 289 416 289 392 289 392 290 416 290 417 290 392 291 417 291 393 291 393 292 417 292 418 292 393 293 418 293 394 293 394 294 418 294 419 294 394 295 419 295 395 295 395 296 419 296 420 296 395 297 420 297 396 297 396 298 420 298 421 298 396 299 421 299 397 299 397 300 421 300 422 300 397 301 422 301 398 301 398 302 422 302 423 302 398 303 423 303 399 303 399 304 423 304 424 304 399 305 424 305 400 305 400 306 424 306 425 306 400 307 425 307 401 307 401 308 425 308 426 308 401 309 426 309 402 309 402 310 426 310 427 310 402 311 427 311 403 311 403 312 427 312 428 312 403 313 428 313 404 313 404 314 428 314 429 314 404 315 429 315 405 315 405 316 429 316 430 316 405 317 430 317 406 317 406 318 430 318 431 318 406 319 431 319 407 319 407 320 431 320 432 320 407 321 432 321 408 321 408 322 432 322 433 322 408 323 433 323 409 323 409 324 433 324 434 324 409 325 434 325 410 325 410 326 434 326 435 326 410 327 435 327 411 327 411 328 435 328 436 328 411 329 436 329 412 329 412 330 436 330 437 330 412 331 437 331 413 331 413 332 437 332 414 332 437 333 379 333 414 333 414 334 379 334 389 334 414 335 389 335 415 335 415 336 389 336 388 336 415 337 388 337 416 337 416 338 388 338 387 338 416 339 387 339 417 339 417 340 387 340 368 340 417 341 368 341 418 341 418 342 368 342 376 342 418 343 376 343 419 343 419 344 376 344 375 344 419 345 375 345 420 345 420 346 375 346 383 346 420 347 383 347 421 347 421 348 383 348 382 348 421 349 382 349 422 349 422 350 382 350 381 350 422 351 381 351 423 351 423 352 381 352 366 352 423 353 366 353 424 353 424 354 366 354 371 354 424 355 371 355 425 355 425 356 371 356 370 356 425 357 370 357 426 357 426 358 370 358 369 358 426 359 369 359 427 359 427 360 369 360 367 360 427 361 367 361 428 361 428 362 367 362 373 362 428 363 373 363 429 363 429 364 373 364 372 364 429 365 372 365 430 365 430 366 372 366 386 366 430 367 386 367 431 367 431 368 386 368 385 368 431 369 385 369 432 369 432 370 385 370 384 370 432 371 384 371 433 371 433 372 384 372 378 372 433 373 378 373 434 373 434 374 378 374 377 374 434 375 377 375 435 375 435 376 377 376 374 376 435 377 374 377 436 377 436 378 374 378 380 378 436 379 380 379 437 379 437 380 380 380 379 380 255 381 256 381 438 381 255 382 438 382 439 382 439 383 438 383 440 383 439 384 440 384 441 384 441 385 440 385 233 385 441 385 233 385 232 385 254 386 253 386 442 386 254 387 442 387 443 387 443 388 442 388 444 388 443 389 444 389 445 389 445 390 444 390 210 390 445 390 210 390 209 390 278 381 277 381 446 381 278 382 446 382 447 382 447 391 446 391 448 391 447 392 448 392 449 392 449 385 448 385 234 385 449 385 234 385 235 385 279 386 280 386 450 386 279 387 450 387 451 387 451 389 450 389 452 389 451 388 452 388 453 388 453 390 452 390 215 390 453 390 215 390 214 390 454 393 232 393 0 393 454 394 0 394 455 394 455 395 0 395 2 395 455 396 2 396 456 396 456 397 2 397 4 397 456 398 4 398 457 398 457 399 4 399 458 399 458 400 4 400 9 400 458 401 9 401 245 401 459 402 441 402 232 402 255 403 439 403 460 403 460 404 439 404 461 404 460 405 461 405 462 405 462 406 461 406 463 406 232 407 454 407 459 407 459 408 454 408 455 408 459 409 455 409 464 409 465 410 466 410 463 410 463 411 466 411 467 411 463 412 467 412 462 412 247 413 249 413 465 413 465 414 249 414 468 414 465 415 468 415 466 415 439 416 441 416 461 416 461 417 441 417 459 417 461 418 459 418 463 418 463 419 459 419 464 419 463 420 464 420 465 420 465 421 464 421 469 421 465 422 469 422 247 422 247 423 469 423 248 423 455 424 456 424 464 424 464 425 456 425 457 425 464 426 457 426 469 426 469 427 457 427 458 427 469 428 458 428 248 428 248 429 458 429 245 429 253 430 255 430 470 430 470 431 255 431 460 431 470 432 460 432 471 432 471 433 460 433 462 433 471 434 462 434 472 434 472 434 462 434 467 434 472 435 467 435 473 435 473 436 467 436 466 436 473 437 466 437 474 437 474 438 466 438 468 438 474 439 468 439 250 439 250 440 468 440 249 440 475 441 442 441 253 441 210 442 444 442 476 442 476 443 444 443 477 443 476 444 477 444 478 444 478 445 477 445 479 445 253 446 470 446 475 446 475 447 470 447 471 447 475 448 471 448 480 448 481 449 482 449 479 449 479 450 482 450 483 450 479 451 483 451 478 451 252 452 246 452 481 452 481 453 246 453 484 453 481 454 484 454 482 454 444 455 442 455 477 455 477 456 442 456 475 456 477 457 475 457 479 457 479 458 475 458 480 458 479 459 480 459 481 459 481 460 480 460 485 460 481 461 485 461 252 461 252 462 485 462 251 462 471 463 472 463 480 463 480 464 472 464 473 464 480 465 473 465 485 465 485 466 473 466 474 466 485 467 474 467 251 467 251 468 474 468 250 468 212 469 210 469 486 469 486 470 210 470 476 470 476 471 478 471 486 471 486 472 478 472 483 472 486 473 483 473 487 473 487 474 483 474 482 474 487 475 482 475 488 475 488 476 482 476 7 476 7 477 482 477 484 477 7 478 484 478 246 478 488 479 7 479 6 479 6 480 489 480 488 480 488 481 489 481 490 481 488 482 490 482 487 482 487 483 490 483 491 483 487 484 491 484 486 484 486 485 491 485 216 485 486 486 216 486 212 486 491 487 490 487 492 487 492 488 490 488 489 488 492 489 489 489 493 489 493 490 489 490 6 490 493 491 6 491 257 491 492 492 494 492 491 492 491 493 494 493 495 493 491 494 495 494 216 494 216 495 495 495 496 495 216 496 496 496 214 496 497 497 453 497 214 497 279 498 451 498 498 498 498 499 451 499 499 499 498 500 499 500 500 500 500 501 499 501 501 501 214 502 496 502 497 502 497 503 496 503 495 503 497 504 495 504 502 504 503 505 504 505 501 505 501 506 504 506 505 506 501 507 505 507 500 507 261 508 262 508 503 508 503 509 262 509 506 509 503 510 506 510 504 510 451 511 453 511 499 511 499 512 453 512 497 512 499 513 497 513 501 513 501 514 497 514 502 514 501 515 502 515 503 515 503 516 502 516 507 516 503 517 507 517 261 517 261 518 507 518 259 518 495 519 494 519 502 519 502 520 494 520 492 520 502 521 492 521 507 521 507 522 492 522 493 522 507 523 493 523 259 523 259 524 493 524 257 524 277 525 279 525 508 525 508 526 279 526 498 526 508 527 498 527 509 527 509 528 498 528 500 528 509 529 500 529 510 529 510 529 500 529 505 529 510 530 505 530 511 530 511 531 505 531 504 531 511 532 504 532 512 532 512 533 504 533 506 533 512 534 506 534 265 534 265 535 506 535 262 535 513 536 446 536 277 536 234 537 448 537 514 537 514 538 448 538 515 538 514 539 515 539 516 539 516 540 515 540 517 540 277 541 508 541 513 541 513 542 508 542 509 542 513 543 509 543 518 543 519 544 520 544 517 544 517 545 520 545 521 545 517 546 521 546 516 546 269 547 271 547 519 547 519 548 271 548 522 548 519 549 522 549 520 549 448 550 446 550 515 550 515 551 446 551 513 551 515 552 513 552 517 552 517 553 513 553 518 553 517 554 518 554 519 554 519 555 518 555 523 555 519 556 523 556 269 556 269 557 523 557 267 557 509 558 510 558 518 558 518 559 510 559 511 559 518 560 511 560 523 560 523 561 511 561 512 561 523 562 512 562 267 562 267 563 512 563 265 563 522 564 271 564 5 564 522 565 5 565 520 565 520 566 5 566 8 566 520 567 8 567 521 567 521 568 8 568 3 568 521 569 3 569 516 569 516 570 3 570 514 570 514 571 3 571 1 571 514 572 1 572 234 572 524 8 219 8 194 8 524 573 194 573 525 573 221 574 219 574 526 574 526 575 219 575 524 575 526 576 524 576 527 576 527 577 524 577 525 577 171 578 170 578 528 578 213 579 221 579 529 579 529 580 221 580 526 580 529 581 526 581 528 581 528 582 526 582 527 582 528 583 527 583 171 583 171 584 527 584 525 584 171 585 525 585 193 585 193 101 525 101 194 101 174 586 230 586 175 586 175 587 230 587 530 587 175 588 530 588 176 588 176 589 530 589 531 589 176 590 531 590 177 590 177 591 531 591 532 591 177 592 532 592 178 592 178 593 532 593 207 593 178 594 207 594 168 594 170 595 207 595 533 595 170 596 533 596 528 596 528 597 533 597 534 597 528 598 534 598 529 598 529 599 534 599 211 599 529 600 211 600 213 600 535 601 533 601 207 601 531 602 530 602 536 602 530 603 230 603 537 603 530 604 537 604 536 604 536 605 537 605 538 605 536 606 538 606 539 606 539 607 538 607 211 607 539 608 211 608 534 608 207 609 532 609 540 609 540 610 532 610 531 610 535 611 207 611 540 611 531 612 536 612 540 612 540 613 536 613 539 613 540 614 539 614 535 614 535 615 539 615 534 615 535 616 534 616 533 616 541 617 209 617 211 617 541 618 211 618 542 618 542 619 211 619 538 619 542 620 538 620 543 620 543 621 538 621 537 621 543 622 537 622 544 622 544 623 537 623 545 623 545 624 537 624 230 624 545 625 230 625 231 625 546 497 445 497 209 497 254 498 443 498 547 498 547 626 443 626 548 626 547 627 548 627 549 627 549 628 548 628 550 628 209 502 541 502 546 502 546 629 541 629 542 629 546 630 542 630 551 630 552 631 553 631 550 631 550 632 553 632 554 632 550 633 554 633 549 633 228 634 227 634 552 634 552 635 227 635 555 635 552 636 555 636 553 636 443 637 445 637 548 637 548 638 445 638 546 638 548 639 546 639 550 639 550 640 546 640 551 640 550 515 551 515 552 515 552 641 551 641 556 641 552 642 556 642 228 642 228 643 556 643 229 643 542 644 543 644 551 644 551 645 543 645 544 645 551 646 544 646 556 646 556 647 544 647 545 647 556 648 545 648 229 648 229 649 545 649 231 649 256 525 254 525 557 525 557 526 254 526 547 526 557 650 547 650 558 650 558 528 547 528 549 528 558 529 549 529 559 529 559 651 549 651 554 651 559 652 554 652 560 652 560 530 554 530 553 530 560 653 553 653 561 653 561 653 553 653 555 653 561 534 555 534 226 534 226 534 555 534 227 534 562 536 438 536 256 536 233 537 440 537 563 537 563 654 440 654 564 654 563 655 564 655 565 655 565 656 564 656 566 656 256 541 557 541 562 541 562 657 557 657 558 657 562 658 558 658 567 658 568 659 569 659 566 659 566 660 569 660 570 660 566 661 570 661 565 661 223 662 225 662 568 662 568 663 225 663 571 663 568 664 571 664 569 664 440 665 438 665 564 665 564 666 438 666 562 666 564 667 562 667 566 667 566 668 562 668 567 668 566 554 567 554 568 554 568 669 567 669 572 669 568 670 572 670 223 670 223 671 572 671 224 671 558 672 559 672 567 672 567 673 559 673 560 673 567 674 560 674 572 674 572 675 560 675 561 675 572 562 561 562 224 562 224 676 561 676 226 676 571 677 225 677 202 677 571 678 202 678 569 678 569 679 202 679 203 679 569 680 203 680 570 680 570 681 203 681 200 681 570 682 200 682 565 682 565 683 200 683 563 683 563 684 200 684 201 684 563 685 201 685 233 685 573 686 195 686 194 686 573 687 194 687 574 687 196 688 195 688 575 688 575 689 195 689 573 689 575 690 573 690 576 690 576 691 573 691 574 691 576 692 574 692 222 692 222 693 574 693 220 693 197 694 196 694 577 694 577 695 196 695 575 695 577 696 575 696 578 696 578 697 575 697 576 697 578 698 576 698 218 698 218 699 576 699 222 699 220 8 574 8 194 8 208 700 197 700 577 700 208 701 577 701 579 701 579 702 577 702 578 702 579 703 578 703 580 703 580 599 578 599 218 599 580 600 218 600 217 600 190 704 208 704 581 704 190 705 581 705 185 705 185 706 581 706 582 706 185 707 582 707 186 707 186 708 582 708 188 708 188 709 582 709 237 709 188 710 237 710 189 710 583 711 584 711 585 711 585 712 584 712 586 712 585 713 586 713 587 713 587 714 586 714 588 714 587 715 588 715 208 715 584 716 237 716 586 716 586 717 237 717 582 717 586 718 582 718 588 718 588 719 582 719 581 719 588 720 581 720 208 720 217 721 583 721 580 721 580 722 583 722 585 722 580 723 585 723 579 723 579 724 585 724 587 724 579 725 587 725 208 725 589 726 238 726 237 726 589 727 237 727 590 727 590 728 237 728 584 728 590 729 584 729 591 729 591 730 584 730 583 730 591 731 583 731 592 731 592 732 583 732 593 732 593 733 583 733 217 733 593 734 217 734 215 734 594 441 450 441 280 441 215 442 452 442 593 442 593 735 452 735 595 735 593 736 595 736 592 736 592 737 595 737 596 737 280 446 597 446 594 446 594 738 597 738 598 738 594 448 598 448 599 448 600 739 590 739 596 739 596 740 590 740 591 740 596 741 591 741 592 741 244 742 238 742 600 742 600 743 238 743 589 743 600 744 589 744 590 744 452 745 450 745 595 745 595 746 450 746 594 746 595 747 594 747 596 747 596 748 594 748 599 748 596 459 599 459 600 459 600 749 599 749 601 749 600 750 601 750 244 750 244 751 601 751 243 751 598 752 602 752 599 752 599 753 602 753 603 753 599 754 603 754 601 754 601 755 603 755 604 755 601 467 604 467 243 467 243 756 604 756 242 756 280 430 278 430 597 430 597 431 278 431 605 431 597 432 605 432 598 432 598 757 605 757 606 757 598 758 606 758 602 758 602 434 606 434 607 434 602 436 607 436 603 436 603 759 607 759 608 759 603 760 608 760 604 760 604 760 608 760 609 760 604 440 609 440 242 440 242 440 609 440 241 440 610 402 449 402 235 402 278 403 447 403 605 403 605 761 447 761 611 761 605 762 611 762 606 762 606 763 611 763 612 763 235 407 613 407 610 407 610 764 613 764 614 764 610 765 614 765 615 765 616 766 608 766 612 766 612 767 608 767 607 767 612 768 607 768 606 768 239 769 241 769 616 769 616 770 241 770 609 770 616 771 609 771 608 771 447 772 449 772 611 772 611 773 449 773 610 773 611 774 610 774 612 774 612 775 610 775 615 775 612 420 615 420 616 420 616 776 615 776 617 776 616 777 617 777 239 777 239 778 617 778 240 778 614 779 618 779 615 779 615 780 618 780 619 780 615 781 619 781 617 781 617 782 619 782 620 782 617 783 620 783 240 783 240 784 620 784 236 784 613 785 235 785 204 785 613 786 204 786 614 786 614 787 204 787 205 787 614 788 205 788 618 788 618 789 205 789 206 789 618 790 206 790 619 790 619 791 206 791 620 791 620 792 206 792 199 792 620 793 199 793 236 793 344 794 621 794 345 794 345 795 621 795 622 795 345 796 622 796 364 796 364 797 622 797 623 797 364 798 623 798 365 798 365 799 623 799 624 799 365 800 624 800 361 800 361 801 624 801 625 801 361 802 625 802 362 802 362 803 625 803 626 803 362 804 626 804 363 804 363 805 626 805 627 805 363 806 627 806 358 806 358 807 627 807 628 807 358 808 628 808 359 808 359 809 628 809 629 809 359 810 629 810 360 810 360 811 629 811 630 811 360 812 630 812 355 812 355 813 630 813 631 813 355 814 631 814 356 814 356 815 631 815 632 815 356 816 632 816 357 816 357 817 632 817 633 817 357 818 633 818 352 818 352 819 633 819 634 819 352 820 634 820 353 820 353 821 634 821 635 821 353 822 635 822 354 822 354 823 635 823 636 823 354 824 636 824 349 824 349 825 636 825 637 825 349 826 637 826 350 826 350 827 637 827 638 827 350 828 638 828 351 828 351 829 638 829 639 829 351 830 639 830 346 830 346 831 639 831 640 831 346 832 640 832 347 832 347 833 640 833 641 833 347 834 641 834 348 834 348 835 641 835 642 835 348 836 642 836 341 836 341 837 642 837 643 837 341 838 643 838 342 838 342 839 643 839 644 839 342 840 644 840 344 840 344 841 644 841 621 841 644 842 645 842 621 842 621 843 645 843 646 843 621 844 646 844 622 844 622 845 646 845 647 845 622 846 647 846 623 846 623 847 647 847 648 847 623 848 648 848 624 848 624 849 648 849 649 849 624 850 649 850 625 850 625 851 649 851 650 851 625 852 650 852 626 852 626 853 650 853 651 853 626 854 651 854 627 854 627 855 651 855 652 855 627 856 652 856 628 856 628 857 652 857 653 857 628 858 653 858 629 858 629 859 653 859 654 859 629 860 654 860 630 860 630 861 654 861 655 861 630 862 655 862 631 862 631 863 655 863 656 863 631 864 656 864 632 864 632 865 656 865 657 865 632 866 657 866 633 866 633 867 657 867 658 867 633 868 658 868 634 868 634 869 658 869 659 869 634 870 659 870 635 870 635 871 659 871 660 871 635 872 660 872 636 872 636 873 660 873 661 873 636 874 661 874 637 874 637 875 661 875 662 875 637 876 662 876 638 876 638 877 662 877 663 877 638 878 663 878 639 878 639 879 663 879 664 879 639 880 664 880 640 880 640 881 664 881 665 881 640 882 665 882 641 882 641 883 665 883 666 883 641 884 666 884 642 884 642 885 666 885 667 885 642 886 667 886 643 886 643 887 667 887 668 887 643 888 668 888 644 888 644 889 668 889 645 889 668 890 321 890 645 890 645 891 321 891 323 891 645 892 323 892 646 892 646 893 323 893 325 893 646 894 325 894 647 894 647 895 325 895 327 895 647 896 327 896 648 896 648 897 327 897 329 897 648 898 329 898 649 898 649 899 329 899 331 899 649 900 331 900 650 900 650 901 331 901 333 901 650 902 333 902 651 902 651 903 333 903 335 903 651 904 335 904 652 904 652 905 335 905 337 905 652 906 337 906 653 906 653 907 337 907 339 907 653 908 339 908 654 908 654 909 339 909 293 909 654 910 293 910 655 910 655 911 293 911 295 911 655 912 295 912 656 912 656 913 295 913 297 913 656 914 297 914 657 914 657 915 297 915 299 915 657 916 299 916 658 916 658 917 299 917 301 917 658 918 301 918 659 918 659 919 301 919 303 919 659 920 303 920 660 920 660 921 303 921 305 921 660 922 305 922 661 922 661 923 305 923 307 923 661 924 307 924 662 924 662 925 307 925 309 925 662 926 309 926 663 926 663 927 309 927 311 927 663 928 311 928 664 928 664 929 311 929 313 929 664 930 313 930 665 930 665 931 313 931 315 931 665 932 315 932 666 932 666 933 315 933 317 933 666 934 317 934 667 934 667 935 317 935 319 935 667 936 319 936 668 936 668 937 319 937 321 937 130 938 669 938 119 938 119 939 669 939 670 939 119 940 670 940 120 940 120 941 670 941 671 941 120 942 671 942 125 942 125 943 671 943 672 943 125 944 672 944 124 944 124 945 672 945 673 945 124 946 673 946 123 946 123 947 673 947 674 947 123 948 674 948 122 948 122 949 674 949 675 949 122 950 675 950 121 950 121 951 675 951 676 951 121 952 676 952 126 952 126 953 676 953 677 953 126 954 677 954 127 954 127 955 677 955 678 955 127 956 678 956 128 956 128 957 678 957 679 957 128 958 679 958 129 958 129 959 679 959 680 959 129 960 680 960 130 960 130 961 680 961 669 961 681 7 673 7 682 7 682 7 673 7 672 7 682 7 672 7 683 7 683 7 672 7 671 7 683 7 671 7 684 7 684 7 671 7 670 7 684 962 670 962 685 962 685 7 670 7 669 7 685 7 669 7 686 7 686 963 669 963 680 963 686 7 680 7 687 7 687 964 680 964 679 964 687 965 679 965 688 965 688 966 679 966 678 966 688 7 678 7 689 7 689 7 678 7 677 7 689 7 677 7 690 7 690 7 677 7 676 7 690 967 676 967 691 967 691 7 676 7 675 7 691 7 675 7 692 7 692 968 675 968 674 968 692 7 674 7 681 7 681 969 674 969 673 969 144 948 693 948 145 948 145 970 693 970 694 970 145 971 694 971 138 971 138 943 694 943 695 943 138 944 695 944 136 944 136 941 695 941 696 941 136 942 696 942 133 942 133 972 696 972 697 972 133 973 697 973 134 973 134 961 697 961 698 961 134 938 698 938 135 938 135 959 698 959 699 959 135 960 699 960 139 960 139 974 699 974 700 974 139 975 700 975 140 975 140 976 700 976 701 976 140 977 701 977 141 977 141 978 701 978 702 978 141 979 702 979 142 979 142 980 702 980 703 980 142 981 703 981 143 981 143 949 703 949 704 949 143 950 704 950 144 950 144 947 704 947 693 947 705 982 697 982 706 982 706 983 697 983 696 983 706 6 696 6 707 6 707 6 696 6 695 6 707 6 695 6 708 6 708 6 695 6 694 6 708 984 694 984 709 984 709 6 694 6 693 6 709 6 693 6 710 6 710 985 693 985 704 985 710 6 704 6 711 6 711 984 704 984 703 984 711 6 703 6 712 6 712 6 703 6 702 6 712 6 702 6 713 6 713 6 702 6 701 6 713 6 701 6 714 6 714 6 701 6 700 6 714 986 700 986 715 986 715 6 700 6 699 6 715 6 699 6 716 6 716 987 699 987 698 987 716 6 698 6 705 6 705 988 698 988 697 988 151 989 105 989 156 989 156 939 105 939 117 939 156 939 117 939 157 939 157 990 117 990 116 990 157 991 116 991 158 991 158 992 116 992 115 992 158 993 115 993 152 993 152 970 115 970 114 970 152 970 114 970 153 970 153 994 114 994 112 994 153 994 112 994 154 994 154 995 112 995 111 995 154 996 111 996 155 996 155 997 111 997 110 997 155 998 110 998 147 998 147 999 110 999 109 999 147 999 109 999 148 999 148 1000 109 1000 108 1000 148 1000 108 1000 149 1000 149 1001 108 1001 107 1001 149 1002 107 1002 150 1002 150 1003 107 1003 106 1003 150 1004 106 1004 151 1004 151 989 106 989 105 989 710 1005 692 1005 709 1005 709 1006 692 1006 681 1006 709 1007 681 1007 708 1007 708 1007 681 1007 682 1007 708 1008 682 1008 707 1008 707 1008 682 1008 683 1008 707 1009 683 1009 706 1009 706 1009 683 1009 684 1009 706 1010 684 1010 705 1010 705 1010 684 1010 685 1010 705 1011 685 1011 716 1011 716 1012 685 1012 686 1012 716 1013 686 1013 715 1013 715 1014 686 1014 687 1014 715 1015 687 1015 714 1015 714 1015 687 1015 688 1015 714 1016 688 1016 713 1016 713 1017 688 1017 689 1017 713 1018 689 1018 712 1018 712 1019 689 1019 690 1019 712 1020 690 1020 711 1020 711 1020 690 1020 691 1020 711 1021 691 1021 710 1021 710 1022 691 1022 692 1022</p>
        </triangles>
      </mesh>
    </geometry>
  </library_geometries>
  <library_visual_scenes>
    <visual_scene id="Scene" name="Scene">
      <node id="Chassi_Link" name="Chassi Link" type="NODE">
        <matrix sid="transform">1 0 0 0 0 1 0 0 0 0 1 0 0 0 0 1</matrix>
        <instance_geometry url="#Chassi_Link-mesh" name="Chassi Link">
          <bind_material>
            <technique_common>
              <instance_material symbol="Material-material" target="#Material-material"/>
            </technique_common>
          </bind_material>
        </instance_geometry>
      </node>
      <node id="Camera" name="Camera" type="NODE">
        <matrix sid="transform">0.6859207 -0.3240135 0.6515582 7.358891 0.7276763 0.3054208 -0.6141704 -6.925791 0 0.8953956 0.4452714 4.958309 0 0 0 1</matrix>
        <instance_camera url="#Camera-camera"/>
      </node>
      <node id="Light" name="Light" type="NODE">
        <matrix sid="transform">-0.2908646 -0.7711008 0.5663932 4.076245 0.9551712 -0.1998834 0.2183912 1.005454 -0.05518906 0.6045247 0.7946723 5.903862 0 0 0 1</matrix>
        <instance_light url="#Light-light"/>
      </node>
    </visual_scene>
  </library_visual_scenes>
  <scene>
    <instance_visual_scene url="#Scene"/>
  </scene>
</COLLADA>